Sender: LSF System <lsfadmin@eu-a6-001-20>
Subject: Job 194760083: <cholesky_openmp_ll_naive-P1-D13> in cluster <euler> Done

Job <cholesky_openmp_ll_naive-P1-D13> was submitted from host <eu-login-14> by user <forstesa> in cluster <euler> at Fri Dec  3 10:26:51 2021
Job was executed on host(s) <eu-a6-001-20>, in queue <hpc.24h>, as user <forstesa> in cluster <euler> at Fri Dec  3 10:27:05 2021
</cluster/home/forstesa> was used as the home directory.
</cluster/home/forstesa/repos/dphpc-project/cholesky/benchmark/2021-12-03_10-26-50-cholesky_openmp_ll_naive/P1-D13> was used as the working directory.
Started at Fri Dec  3 10:27:05 2021
Terminated at Fri Dec  3 12:26:46 2021
Results reported at Fri Dec  3 12:26:46 2021

Your job looked like:

------------------------------------------------------------
# LSBATCH: User input
lscpu >> /cluster/home/forstesa/repos/dphpc-project/cholesky/benchmark/2021-12-03_10-26-50-cholesky_openmp_ll_naive/P1-D13/CPU_INFO.txt;   /cluster/home/forstesa/repos/dphpc-project/cholesky/benchmark/2021-12-03_10-26-50-cholesky_openmp_ll_naive/snapshot/cholesky_openmp_ll_naive -d 8192 -b
------------------------------------------------------------

Successfully completed.

Resource usage summary:

    CPU time :                                   7161.23 sec.
    Max Memory :                                 1119 MB
    Average Memory :                             1025.71 MB
    Total Requested Memory :                     1024.00 MB
    Delta Memory :                               -95.00 MB
    Max Swap :                                   -
    Max Processes :                              4
    Max Threads :                                11
    Run time :                                   7197 sec.
    Turnaround time :                            7195 sec.

The output (if any) follows:

***** LSB_Init >cholesky_openmp_ll_naive.8192< writing to >lsb.cholesky_openmp_ll_naive.8192.r0< *****
******* LSB_Finalize *******
