Sender: LSF System <lsfadmin@eu-a6-009-03>
Subject: Job 200037764: <classical_gram_mpi-P16-D512> in cluster <euler> Done

Job <classical_gram_mpi-P16-D512> was submitted from host <eu-login-14> by user <fhoerold> in cluster <euler> at Tue Jan 11 22:44:12 2022
Job was executed on host(s) <16*eu-a6-009-03>, in queue <hpc.24h>, as user <fhoerold> in cluster <euler> at Tue Jan 11 22:51:04 2022
</cluster/home/fhoerold> was used as the home directory.
</cluster/home/fhoerold/Design_of_Parallel_and_High_Performance_Computing/dphpc-project/benchmark/2022-01-11_22-43-59-classical_gram_mpi/P16-D512> was used as the working directory.
Started at Tue Jan 11 22:51:04 2022
Terminated at Tue Jan 11 22:51:20 2022
Results reported at Tue Jan 11 22:51:20 2022

Your job looked like:

------------------------------------------------------------
# LSBATCH: User input
lscpu >> /cluster/home/fhoerold/Design_of_Parallel_and_High_Performance_Computing/dphpc-project/benchmark/2022-01-11_22-43-59-classical_gram_mpi/P16-D512/CPU_INFO.txt; mpirun -np 16  /cluster/home/fhoerold/Design_of_Parallel_and_High_Performance_Computing/dphpc-project/benchmark/2022-01-11_22-43-59-classical_gram_mpi/snapshot/classical_gram_mpi -d 512 -b
------------------------------------------------------------

Successfully completed.

Resource usage summary:

    CPU time :                                   135.26 sec.
    Max Memory :                                 1238 MB
    Average Memory :                             770.67 MB
    Total Requested Memory :                     16384.00 MB
    Delta Memory :                               15146.00 MB
    Max Swap :                                   -
    Max Processes :                              19
    Max Threads :                                71
    Run time :                                   16 sec.
    Turnaround time :                            428 sec.

The output (if any) follows:

***** LSB_Init >classical_gram_mpi.512x512_0< writing to >lsb.classical_gram_mpi.512x512_0.r0< *****
******* LSB_Finalize *******
