Sender: LSF System <lsfadmin@eu-a6-010-21>
Subject: Job 197656806: <classical_gram_mpi_omp-P8-D12> in cluster <euler> Exited

Job <classical_gram_mpi_omp-P8-D12> was submitted from host <eu-login-03> by user <fhoerold> in cluster <euler> at Tue Dec 21 08:31:26 2021
Job was executed on host(s) <8*eu-a6-010-21>, in queue <hpc.24h>, as user <fhoerold> in cluster <euler> at Tue Dec 21 08:32:35 2021
</cluster/home/fhoerold> was used as the home directory.
</cluster/home/fhoerold/Design_of_Parallel_and_High_Performance_Computing/dphpc-project/benchmark/2021-12-21_08-31-21-classical_gram_mpi_omp/P8-D12> was used as the working directory.
Started at Tue Dec 21 08:32:35 2021
Terminated at Tue Dec 21 08:32:50 2021
Results reported at Tue Dec 21 08:32:50 2021

Your job looked like:

------------------------------------------------------------
# LSBATCH: User input
lscpu >> /cluster/home/fhoerold/Design_of_Parallel_and_High_Performance_Computing/dphpc-project/benchmark/2021-12-21_08-31-21-classical_gram_mpi_omp/P8-D12/CPU_INFO.txt; mpirun -np 4  /cluster/home/fhoerold/Design_of_Parallel_and_High_Performance_Computing/dphpc-project/benchmark/2021-12-21_08-31-21-classical_gram_mpi_omp/snapshot/classical_gram_mpi_omp -d 4096 -b
------------------------------------------------------------

Exited with exit code 139.

Resource usage summary:

    CPU time :                                   24.00 sec.
    Max Memory :                                 2853 MB
    Average Memory :                             1622.33 MB
    Total Requested Memory :                     8800.00 MB
    Delta Memory :                               5947.00 MB
    Max Swap :                                   -
    Max Processes :                              7
    Max Threads :                                23
    Run time :                                   19 sec.
    Turnaround time :                            84 sec.

The output (if any) follows:

***** LSB_Init >classical_gram_mpi_omp.4096x4096_0< writing to >lsb.classical_gram_mpi_omp.4096x4096_0.r0< *****
[eu-a6-010-21:61357:0:61459] Caught signal 11 (Segmentation fault: invalid permissions for mapped object at address 0x2b89b0ece000)
==== backtrace ====
[eu-a6-010-21:61349:0:61491] Caught signal 11 (Segmentation fault: invalid permissions for mapped object at address 0x2b1e99eda000)
==== backtrace ====
[eu-a6-010-21:61352:0:61463] Caught signal 11 (Segmentation fault: invalid permissions for mapped object at address 0x2ac420783000)
==== backtrace ====
[eu-a6-010-21:61354:0:61464] Caught signal 11 (Segmentation fault: invalid permissions for mapped object at address 0x2ba347da0000)
==== backtrace ====
    0  /cluster/spack/apps/linux-centos7-x86_64/gcc-8.2.0/ucx-1.6.1-f3pcfiiu6oav3fekzoxccr5irclwfiwv/lib/libucs.so.0(+0x1e874) [0x2b898e3a7874]
    1  /cluster/spack/apps/linux-centos7-x86_64/gcc-8.2.0/ucx-1.6.1-f3pcfiiu6oav3fekzoxccr5irclwfiwv/lib/libucs.so.0(+0x1eb18) [0x2b898e3a7b18]
    2  /cluster/home/fhoerold/Design_of_Parallel_and_High_Performance_Computing/dphpc-project/benchmark/2021-12-21_08-31-21-classical_gram_mpi_omp/snapshot/classical_gram_mpi_omp() [0x402610]
    3  /cluster/spack/apps/linux-centos7-x86_64/gcc-4.8.5/gcc-8.2.0-6xqov2fhvbmehix42slain67vprec3fs/lib64/libgomp.so.1(+0x1651e) [0x2b898b42d51e]
    4  /usr/lib64/libpthread.so.0(+0x7ea5) [0x2b898bf40ea5]
    5  /usr/lib64/libc.so.6(clone+0x6d) [0x2b898c2539fd]
===================
    0  /cluster/spack/apps/linux-centos7-x86_64/gcc-8.2.0/ucx-1.6.1-f3pcfiiu6oav3fekzoxccr5irclwfiwv/lib/libucs.so.0(+0x1e874) [0x2b1e6f2ae874]
    1  /cluster/spack/apps/linux-centos7-x86_64/gcc-8.2.0/ucx-1.6.1-f3pcfiiu6oav3fekzoxccr5irclwfiwv/lib/libucs.so.0(+0x1eb18) [0x2b1e6f2aeb18]
    2  /cluster/home/fhoerold/Design_of_Parallel_and_High_Performance_Computing/dphpc-project/benchmark/2021-12-21_08-31-21-classical_gram_mpi_omp/snapshot/classical_gram_mpi_omp() [0x402610]
    3  /cluster/spack/apps/linux-centos7-x86_64/gcc-4.8.5/gcc-8.2.0-6xqov2fhvbmehix42slain67vprec3fs/lib64/libgomp.so.1(+0x1651e) [0x2b1e6c33451e]
    4  /usr/lib64/libpthread.so.0(+0x7ea5) [0x2b1e6ce47ea5]
    5  /usr/lib64/libc.so.6(clone+0x6d) [0x2b1e6d15a9fd]
===================
    0  /cluster/spack/apps/linux-centos7-x86_64/gcc-8.2.0/ucx-1.6.1-f3pcfiiu6oav3fekzoxccr5irclwfiwv/lib/libucs.so.0(+0x1e874) [0x2ac3fdc71874]
    1  /cluster/spack/apps/linux-centos7-x86_64/gcc-8.2.0/ucx-1.6.1-f3pcfiiu6oav3fekzoxccr5irclwfiwv/lib/libucs.so.0(+0x1eb18) [0x2ac3fdc71b18]
    2  /cluster/home/fhoerold/Design_of_Parallel_and_High_Performance_Computing/dphpc-project/benchmark/2021-12-21_08-31-21-classical_gram_mpi_omp/snapshot/classical_gram_mpi_omp() [0x402610]
    3  /cluster/spack/apps/linux-centos7-x86_64/gcc-4.8.5/gcc-8.2.0-6xqov2fhvbmehix42slain67vprec3fs/lib64/libgomp.so.1(+0x1651e) [0x2ac3facf751e]
    4  /usr/lib64/libpthread.so.0(+0x7ea5) [0x2ac3fb80aea5]
    5  /usr/lib64/libc.so.6(clone+0x6d) [0x2ac3fbb1d9fd]
===================
    0  /cluster/spack/apps/linux-centos7-x86_64/gcc-8.2.0/ucx-1.6.1-f3pcfiiu6oav3fekzoxccr5irclwfiwv/lib/libucs.so.0(+0x1e874) [0x2ba325174874]
    1  /cluster/spack/apps/linux-centos7-x86_64/gcc-8.2.0/ucx-1.6.1-f3pcfiiu6oav3fekzoxccr5irclwfiwv/lib/libucs.so.0(+0x1eb18) [0x2ba325174b18]
    2  /cluster/home/fhoerold/Design_of_Parallel_and_High_Performance_Computing/dphpc-project/benchmark/2021-12-21_08-31-21-classical_gram_mpi_omp/snapshot/classical_gram_mpi_omp() [0x402610]
    3  /cluster/spack/apps/linux-centos7-x86_64/gcc-4.8.5/gcc-8.2.0-6xqov2fhvbmehix42slain67vprec3fs/lib64/libgomp.so.1(+0x1651e) [0x2ba3221fa51e]
    4  /usr/lib64/libpthread.so.0(+0x7ea5) [0x2ba322d0dea5]
    5  /usr/lib64/libc.so.6(clone+0x6d) [0x2ba3230209fd]
===================
--------------------------------------------------------------------------
Primary job  terminated normally, but 1 process returned
a non-zero exit code. Per user-direction, the job has been aborted.
--------------------------------------------------------------------------
--------------------------------------------------------------------------
mpirun noticed that process rank 3 with PID 0 on node eu-a6-010-21 exited on signal 11 (Segmentation fault).
--------------------------------------------------------------------------
