Sender: LSF System <lsfadmin@eu-a6-002-15>
Subject: Job 193073877: <cholesky_mpi_ll_optimised-P16-D7> in cluster <euler> Done

Job <cholesky_mpi_ll_optimised-P16-D7> was submitted from host <eu-login-31> by user <forstesa> in cluster <euler> at Tue Nov 23 19:59:22 2021
Job was executed on host(s) <16*eu-a6-002-15>, in queue <hpc.4h>, as user <forstesa> in cluster <euler> at Tue Nov 23 20:04:38 2021
</cluster/home/forstesa> was used as the home directory.
</cluster/home/forstesa/repos/dphpc-project/cholesky/data/cache_misses/XeonGold_6150/2021-11-23_19-59-19-cholesky_mpi_ll_optimised/P16-D7> was used as the working directory.
Started at Tue Nov 23 20:04:38 2021
Terminated at Tue Nov 23 20:04:43 2021
Results reported at Tue Nov 23 20:04:43 2021

Your job looked like:

------------------------------------------------------------
# LSBATCH: User input
lscpu >> /cluster/home/forstesa/repos/dphpc-project/cholesky/data/cache_misses/XeonGold_6150/2021-11-23_19-59-19-cholesky_mpi_ll_optimised/P16-D7/CPU_INFO.txt; mpirun valgrind --tool=cachegrind /cluster/home/forstesa/repos/dphpc-project/cholesky/data/cache_misses/XeonGold_6150/2021-11-23_19-59-19-cholesky_mpi_ll_optimised/snapshot/cholesky_mpi_ll_optimised -d 128
------------------------------------------------------------

Successfully completed.

Resource usage summary:

    CPU time :                                   60.80 sec.
    Max Memory :                                 1114 MB
    Average Memory :                             726.00 MB
    Total Requested Memory :                     16384.00 MB
    Delta Memory :                               15270.00 MB
    Max Swap :                                   -
    Max Processes :                              19
    Max Threads :                                71
    Run time :                                   5 sec.
    Turnaround time :                            321 sec.

The output (if any) follows:

==63744== Cachegrind, a cache and branch-prediction profiler
==63744== Copyright (C) 2002-2017, and GNU GPL'd, by Nicholas Nethercote et al.
==63744== Using Valgrind-3.13.0 and LibVEX; rerun with -h for copyright info
==63744== Command: /cluster/home/forstesa/repos/dphpc-project/cholesky/data/cache_misses/XeonGold_6150/2021-11-23_19-59-19-cholesky_mpi_ll_optimised/snapshot/cholesky_mpi_ll_optimised -d 128
==63744== 
--63744-- warning: L3 cache found, using its data for the LL simulation.
--63744-- warning: specified LL cache: line_size 64  assoc 11  total_size 25,952,256
--63744-- warning: simulated LL cache: line_size 64  assoc 12  total_size 25,165,824
==63745== Cachegrind, a cache and branch-prediction profiler
==63745== Copyright (C) 2002-2017, and GNU GPL'd, by Nicholas Nethercote et al.
==63745== Using Valgrind-3.13.0 and LibVEX; rerun with -h for copyright info
==63745== Command: /cluster/home/forstesa/repos/dphpc-project/cholesky/data/cache_misses/XeonGold_6150/2021-11-23_19-59-19-cholesky_mpi_ll_optimised/snapshot/cholesky_mpi_ll_optimised -d 128
==63745== 
--63745-- warning: L3 cache found, using its data for the LL simulation.
--63745-- warning: specified LL cache: line_size 64  assoc 11  total_size 25,952,256
--63745-- warning: simulated LL cache: line_size 64  assoc 12  total_size 25,165,824
==63746== Cachegrind, a cache and branch-prediction profiler
==63746== Copyright (C) 2002-2017, and GNU GPL'd, by Nicholas Nethercote et al.
==63746== Using Valgrind-3.13.0 and LibVEX; rerun with -h for copyright info
==63746== Command: /cluster/home/forstesa/repos/dphpc-project/cholesky/data/cache_misses/XeonGold_6150/2021-11-23_19-59-19-cholesky_mpi_ll_optimised/snapshot/cholesky_mpi_ll_optimised -d 128
==63746== 
--63746-- warning: L3 cache found, using its data for the LL simulation.
--63746-- warning: specified LL cache: line_size 64  assoc 11  total_size 25,952,256
--63746-- warning: simulated LL cache: line_size 64  assoc 12  total_size 25,165,824
==63747== Cachegrind, a cache and branch-prediction profiler
==63747== Copyright (C) 2002-2017, and GNU GPL'd, by Nicholas Nethercote et al.
==63747== Using Valgrind-3.13.0 and LibVEX; rerun with -h for copyright info
==63747== Command: /cluster/home/forstesa/repos/dphpc-project/cholesky/data/cache_misses/XeonGold_6150/2021-11-23_19-59-19-cholesky_mpi_ll_optimised/snapshot/cholesky_mpi_ll_optimised -d 128
==63747== 
--63747-- warning: L3 cache found, using its data for the LL simulation.
--63747-- warning: specified LL cache: line_size 64  assoc 11  total_size 25,952,256
--63747-- warning: simulated LL cache: line_size 64  assoc 12  total_size 25,165,824
==63748== Cachegrind, a cache and branch-prediction profiler
==63748== Copyright (C) 2002-2017, and GNU GPL'd, by Nicholas Nethercote et al.
==63748== Using Valgrind-3.13.0 and LibVEX; rerun with -h for copyright info
==63748== Command: /cluster/home/forstesa/repos/dphpc-project/cholesky/data/cache_misses/XeonGold_6150/2021-11-23_19-59-19-cholesky_mpi_ll_optimised/snapshot/cholesky_mpi_ll_optimised -d 128
==63748== 
--63748-- warning: L3 cache found, using its data for the LL simulation.
--63748-- warning: specified LL cache: line_size 64  assoc 11  total_size 25,952,256
--63748-- warning: simulated LL cache: line_size 64  assoc 12  total_size 25,165,824
==63749== Cachegrind, a cache and branch-prediction profiler
==63749== Copyright (C) 2002-2017, and GNU GPL'd, by Nicholas Nethercote et al.
==63749== Using Valgrind-3.13.0 and LibVEX; rerun with -h for copyright info
==63749== Command: /cluster/home/forstesa/repos/dphpc-project/cholesky/data/cache_misses/XeonGold_6150/2021-11-23_19-59-19-cholesky_mpi_ll_optimised/snapshot/cholesky_mpi_ll_optimised -d 128
==63749== 
--63749-- warning: L3 cache found, using its data for the LL simulation.
--63749-- warning: specified LL cache: line_size 64  assoc 11  total_size 25,952,256
--63749-- warning: simulated LL cache: line_size 64  assoc 12  total_size 25,165,824
==63750== Cachegrind, a cache and branch-prediction profiler
==63750== Copyright (C) 2002-2017, and GNU GPL'd, by Nicholas Nethercote et al.
==63750== Using Valgrind-3.13.0 and LibVEX; rerun with -h for copyright info
==63750== Command: /cluster/home/forstesa/repos/dphpc-project/cholesky/data/cache_misses/XeonGold_6150/2021-11-23_19-59-19-cholesky_mpi_ll_optimised/snapshot/cholesky_mpi_ll_optimised -d 128
==63750== 
--63750-- warning: L3 cache found, using its data for the LL simulation.
--63750-- warning: specified LL cache: line_size 64  assoc 11  total_size 25,952,256
--63750-- warning: simulated LL cache: line_size 64  assoc 12  total_size 25,165,824
==63751== Cachegrind, a cache and branch-prediction profiler
==63751== Copyright (C) 2002-2017, and GNU GPL'd, by Nicholas Nethercote et al.
==63751== Using Valgrind-3.13.0 and LibVEX; rerun with -h for copyright info
==63751== Command: /cluster/home/forstesa/repos/dphpc-project/cholesky/data/cache_misses/XeonGold_6150/2021-11-23_19-59-19-cholesky_mpi_ll_optimised/snapshot/cholesky_mpi_ll_optimised -d 128
==63751== 
--63751-- warning: L3 cache found, using its data for the LL simulation.
--63751-- warning: specified LL cache: line_size 64  assoc 11  total_size 25,952,256
--63751-- warning: simulated LL cache: line_size 64  assoc 12  total_size 25,165,824
==63752== Cachegrind, a cache and branch-prediction profiler
==63752== Copyright (C) 2002-2017, and GNU GPL'd, by Nicholas Nethercote et al.
==63752== Using Valgrind-3.13.0 and LibVEX; rerun with -h for copyright info
==63752== Command: /cluster/home/forstesa/repos/dphpc-project/cholesky/data/cache_misses/XeonGold_6150/2021-11-23_19-59-19-cholesky_mpi_ll_optimised/snapshot/cholesky_mpi_ll_optimised -d 128
==63752== 
--63752-- warning: L3 cache found, using its data for the LL simulation.
--63752-- warning: specified LL cache: line_size 64  assoc 11  total_size 25,952,256
--63752-- warning: simulated LL cache: line_size 64  assoc 12  total_size 25,165,824
==63753== Cachegrind, a cache and branch-prediction profiler
==63753== Copyright (C) 2002-2017, and GNU GPL'd, by Nicholas Nethercote et al.
==63753== Using Valgrind-3.13.0 and LibVEX; rerun with -h for copyright info
==63753== Command: /cluster/home/forstesa/repos/dphpc-project/cholesky/data/cache_misses/XeonGold_6150/2021-11-23_19-59-19-cholesky_mpi_ll_optimised/snapshot/cholesky_mpi_ll_optimised -d 128
==63753== 
--63753-- warning: L3 cache found, using its data for the LL simulation.
--63753-- warning: specified LL cache: line_size 64  assoc 11  total_size 25,952,256
--63753-- warning: simulated LL cache: line_size 64  assoc 12  total_size 25,165,824
==63754== Cachegrind, a cache and branch-prediction profiler
==63754== Copyright (C) 2002-2017, and GNU GPL'd, by Nicholas Nethercote et al.
==63754== Using Valgrind-3.13.0 and LibVEX; rerun with -h for copyright info
==63754== Command: /cluster/home/forstesa/repos/dphpc-project/cholesky/data/cache_misses/XeonGold_6150/2021-11-23_19-59-19-cholesky_mpi_ll_optimised/snapshot/cholesky_mpi_ll_optimised -d 128
==63754== 
--63754-- warning: L3 cache found, using its data for the LL simulation.
--63754-- warning: specified LL cache: line_size 64  assoc 11  total_size 25,952,256
--63754-- warning: simulated LL cache: line_size 64  assoc 12  total_size 25,165,824
==63755== Cachegrind, a cache and branch-prediction profiler
==63755== Copyright (C) 2002-2017, and GNU GPL'd, by Nicholas Nethercote et al.
==63755== Using Valgrind-3.13.0 and LibVEX; rerun with -h for copyright info
==63755== Command: /cluster/home/forstesa/repos/dphpc-project/cholesky/data/cache_misses/XeonGold_6150/2021-11-23_19-59-19-cholesky_mpi_ll_optimised/snapshot/cholesky_mpi_ll_optimised -d 128
==63755== 
--63755-- warning: L3 cache found, using its data for the LL simulation.
--63755-- warning: specified LL cache: line_size 64  assoc 11  total_size 25,952,256
--63755-- warning: simulated LL cache: line_size 64  assoc 12  total_size 25,165,824
==63756== Cachegrind, a cache and branch-prediction profiler
==63756== Copyright (C) 2002-2017, and GNU GPL'd, by Nicholas Nethercote et al.
==63756== Using Valgrind-3.13.0 and LibVEX; rerun with -h for copyright info
==63756== Command: /cluster/home/forstesa/repos/dphpc-project/cholesky/data/cache_misses/XeonGold_6150/2021-11-23_19-59-19-cholesky_mpi_ll_optimised/snapshot/cholesky_mpi_ll_optimised -d 128
==63756== 
--63756-- warning: L3 cache found, using its data for the LL simulation.
--63756-- warning: specified LL cache: line_size 64  assoc 11  total_size 25,952,256
--63756-- warning: simulated LL cache: line_size 64  assoc 12  total_size 25,165,824
==63757== Cachegrind, a cache and branch-prediction profiler
==63757== Copyright (C) 2002-2017, and GNU GPL'd, by Nicholas Nethercote et al.
==63757== Using Valgrind-3.13.0 and LibVEX; rerun with -h for copyright info
==63757== Command: /cluster/home/forstesa/repos/dphpc-project/cholesky/data/cache_misses/XeonGold_6150/2021-11-23_19-59-19-cholesky_mpi_ll_optimised/snapshot/cholesky_mpi_ll_optimised -d 128
==63757== 
--63757-- warning: L3 cache found, using its data for the LL simulation.
--63757-- warning: specified LL cache: line_size 64  assoc 11  total_size 25,952,256
--63757-- warning: simulated LL cache: line_size 64  assoc 12  total_size 25,165,824
==63758== Cachegrind, a cache and branch-prediction profiler
==63758== Copyright (C) 2002-2017, and GNU GPL'd, by Nicholas Nethercote et al.
==63758== Using Valgrind-3.13.0 and LibVEX; rerun with -h for copyright info
==63758== Command: /cluster/home/forstesa/repos/dphpc-project/cholesky/data/cache_misses/XeonGold_6150/2021-11-23_19-59-19-cholesky_mpi_ll_optimised/snapshot/cholesky_mpi_ll_optimised -d 128
==63758== 
--63758-- warning: L3 cache found, using its data for the LL simulation.
--63758-- warning: specified LL cache: line_size 64  assoc 11  total_size 25,952,256
--63758-- warning: simulated LL cache: line_size 64  assoc 12  total_size 25,165,824
==63759== Cachegrind, a cache and branch-prediction profiler
==63759== Copyright (C) 2002-2017, and GNU GPL'd, by Nicholas Nethercote et al.
==63759== Using Valgrind-3.13.0 and LibVEX; rerun with -h for copyright info
==63759== Command: /cluster/home/forstesa/repos/dphpc-project/cholesky/data/cache_misses/XeonGold_6150/2021-11-23_19-59-19-cholesky_mpi_ll_optimised/snapshot/cholesky_mpi_ll_optimised -d 128
==63759== 
--63759-- warning: L3 cache found, using its data for the LL simulation.
--63759-- warning: specified LL cache: line_size 64  assoc 11  total_size 25,952,256
--63759-- warning: simulated LL cache: line_size 64  assoc 12  total_size 25,165,824
==63748== WARNING: valgrind ignores shmget(shmflg) SHM_HUGETLB
==63746== WARNING: valgrind ignores shmget(shmflg) SHM_HUGETLB
==63747== WARNING: valgrind ignores shmget(shmflg) SHM_HUGETLB
==63745== WARNING: valgrind ignores shmget(shmflg) SHM_HUGETLB
==63755== WARNING: valgrind ignores shmget(shmflg) SHM_HUGETLB
==63754== WARNING: valgrind ignores shmget(shmflg) SHM_HUGETLB
==63752== WARNING: valgrind ignores shmget(shmflg) SHM_HUGETLB
==63753== WARNING: valgrind ignores shmget(shmflg) SHM_HUGETLB
==63750== WARNING: valgrind ignores shmget(shmflg) SHM_HUGETLB
==63751== WARNING: valgrind ignores shmget(shmflg) SHM_HUGETLB
==63759== WARNING: valgrind ignores shmget(shmflg) SHM_HUGETLB
==63756== WARNING: valgrind ignores shmget(shmflg) SHM_HUGETLB
==63757== WARNING: valgrind ignores shmget(shmflg) SHM_HUGETLB
==63758== WARNING: valgrind ignores shmget(shmflg) SHM_HUGETLB
==63749== WARNING: valgrind ignores shmget(shmflg) SHM_HUGETLB
==63744== WARNING: valgrind ignores shmget(shmflg) SHM_HUGETLB
==63747== 
==63747== I   refs:      167,062,513
==63747== I1  misses:        109,849
==63747== LLi misses:         16,238
==63747== I1  miss rate:        0.07%
==63747== LLi miss rate:        0.01%
==63747== 
==63747== D   refs:       75,967,801  (56,680,877 rd   + 19,286,924 wr)
==63747== D1  misses:      1,040,311  (   833,278 rd   +    207,033 wr)
==63747== LLd misses:        181,301  (    64,890 rd   +    116,411 wr)
==63747== D1  miss rate:         1.4% (       1.5%     +        1.1%  )
==63747== LLd miss rate:         0.2% (       0.1%     +        0.6%  )
==63747== 
==63747== LL refs:         1,150,160  (   943,127 rd   +    207,033 wr)
==63747== LL misses:         197,539  (    81,128 rd   +    116,411 wr)
==63747== LL miss rate:          0.1% (       0.0%     +        0.6%  )
==63756== 
==63756== I   refs:      195,600,062
==63756== I1  misses:        111,908
==63756== LLi misses:         16,184
==63756== I1  miss rate:        0.06%
==63756== LLi miss rate:        0.01%
==63756== 
==63756== D   refs:       90,221,900  (67,767,581 rd   + 22,454,319 wr)
==63756== D1  misses:      1,038,788  (   831,626 rd   +    207,162 wr)
==63756== LLd misses:        181,320  (    64,912 rd   +    116,408 wr)
==63756== D1  miss rate:         1.2% (       1.2%     +        0.9%  )
==63756== LLd miss rate:         0.2% (       0.1%     +        0.5%  )
==63756== 
==63756== LL refs:         1,150,696  (   943,534 rd   +    207,162 wr)
==63756== LL misses:         197,504  (    81,096 rd   +    116,408 wr)
==63756== LL miss rate:          0.1% (       0.0%     +        0.5%  )
==63748== 
==63755== 
==63748== I   refs:      199,251,057
==63748== I1  misses:        109,344
==63748== LLi misses:         16,204
==63748== I1  miss rate:        0.05%
==63748== LLi miss rate:        0.01%
==63748== 
==63748== D   refs:       92,008,834  (69,168,039 rd   + 22,840,795 wr)
==63748== D1  misses:      1,038,887  (   832,013 rd   +    206,874 wr)
==63748== LLd misses:        181,064  (    64,912 rd   +    116,152 wr)
==63748== D1  miss rate:         1.1% (       1.2%     +        0.9%  )
==63748== LLd miss rate:         0.2% (       0.1%     +        0.5%  )
==63748== 
==63748== LL refs:         1,148,231  (   941,357 rd   +    206,874 wr)
==63748== LL misses:         197,268  (    81,116 rd   +    116,152 wr)
==63748== LL miss rate:          0.1% (       0.0%     +        0.5%  )
==63755== I   refs:      202,758,252
==63755== I1  misses:        111,682
==63755== LLi misses:         16,184
==63755== I1  miss rate:        0.06%
==63755== LLi miss rate:        0.01%
==63755== 
==63755== D   refs:       93,888,495  (70,609,097 rd   + 23,279,398 wr)
==63755== D1  misses:      1,038,422  (   832,597 rd   +    205,825 wr)
==63755== LLd misses:        181,300  (    64,953 rd   +    116,347 wr)
==63755== D1  miss rate:         1.1% (       1.2%     +        0.9%  )
==63755== LLd miss rate:         0.2% (       0.1%     +        0.5%  )
==63755== 
==63755== LL refs:         1,150,104  (   944,279 rd   +    205,825 wr)
==63755== LL misses:         197,484  (    81,137 rd   +    116,347 wr)
==63755== LL miss rate:          0.1% (       0.0%     +        0.5%  )
==63757== 
==63757== I   refs:      212,219,335
==63757== I1  misses:        111,981
==63757== LLi misses:         16,181
==63757== I1  miss rate:        0.05%
==63757== LLi miss rate:        0.01%
==63757== 
==63757== D   refs:       98,561,276  (74,243,210 rd   + 24,318,066 wr)
==63757== D1  misses:      1,038,624  (   831,487 rd   +    207,137 wr)
==63757== LLd misses:        181,320  (    64,912 rd   +    116,408 wr)
==63757== D1  miss rate:         1.1% (       1.1%     +        0.9%  )
==63757== LLd miss rate:         0.2% (       0.1%     +        0.5%  )
==63757== 
==63757== LL refs:         1,150,605  (   943,468 rd   +    207,137 wr)
==63757== LL misses:         197,501  (    81,093 rd   +    116,408 wr)
==63757== LL miss rate:          0.1% (       0.0%     +        0.5%  )
==63751== 
==63751== I   refs:      219,566,417
==63751== I1  misses:        109,225
==63751== LLi misses:         16,212
==63751== I1  miss rate:        0.05%
==63751== LLi miss rate:        0.01%
==63751== 
==63751== D   refs:      102,235,041  (77,106,156 rd   + 25,128,885 wr)
==63751== D1  misses:      1,039,717  (   833,595 rd   +    206,122 wr)
==63751== LLd misses:        181,318  (    64,977 rd   +    116,341 wr)
==63751== D1  miss rate:         1.0% (       1.1%     +        0.8%  )
==63751== LLd miss rate:         0.2% (       0.1%     +        0.5%  )
==63751== 
==63751== LL refs:         1,148,942  (   942,820 rd   +    206,122 wr)
==63751== LL misses:         197,530  (    81,189 rd   +    116,341 wr)
==63751== LL miss rate:          0.1% (       0.0%     +        0.5%  )
==63744== 
==63750== 
==63758== 
==63744== I   refs:      199,941,243
==63744== I1  misses:        109,539
==63744== LLi misses:         16,226
==63744== I1  miss rate:        0.05%
==63744== LLi miss rate:        0.01%
==63744== 
==63744== D   refs:       94,124,694  (71,019,283 rd   + 23,105,411 wr)
==63744== D1  misses:      3,792,875  ( 3,535,733 rd   +    257,142 wr)
==63744== LLd misses:        192,075  (    64,721 rd   +    127,354 wr)
==63744== D1  miss rate:         4.0% (       5.0%     +        1.1%  )
==63744== LLd miss rate:         0.2% (       0.1%     +        0.6%  )
==63744== 
==63744== LL refs:         3,902,414  ( 3,645,272 rd   +    257,142 wr)
==63744== LL misses:         208,301  (    80,947 rd   +    127,354 wr)
==63744== LL miss rate:          0.1% (       0.0%     +        0.6%  )
==63750== I   refs:      216,032,668
==63750== I1  misses:        109,540
==63750== LLi misses:         16,214
==63750== I1  miss rate:        0.05%
==63750== LLi miss rate:        0.01%
==63750== 
==63750== D   refs:      100,495,879  (75,755,810 rd   + 24,740,069 wr)
==63750== D1  misses:      1,040,127  (   833,076 rd   +    207,051 wr)
==63750== LLd misses:        181,297  (    64,888 rd   +    116,409 wr)
==63750== D1  miss rate:         1.0% (       1.1%     +        0.8%  )
==63750== LLd miss rate:         0.2% (       0.1%     +        0.5%  )
==63750== 
==63750== LL refs:         1,149,667  (   942,616 rd   +    207,051 wr)
==63750== LL misses:         197,511  (    81,102 rd   +    116,409 wr)
==63750== LL miss rate:          0.1% (       0.0%     +        0.5%  )
==63758== I   refs:      227,787,519
==63758== I1  misses:        112,143
==63758== LLi misses:         16,183
==63758== I1  miss rate:        0.05%
==63758== LLi miss rate:        0.01%
==63758== 
==63758== D   refs:      106,357,688  (80,302,250 rd   + 26,055,438 wr)
==63758== D1  misses:      1,038,839  (   831,667 rd   +    207,172 wr)
==63758== LLd misses:        181,320  (    64,912 rd   +    116,408 wr)
==63758== D1  miss rate:         1.0% (       1.0%     +        0.8%  )
==63758== LLd miss rate:         0.2% (       0.1%     +        0.4%  )
==63758== 
==63758== LL refs:         1,150,982  (   943,810 rd   +    207,172 wr)
==63758== LL misses:         197,503  (    81,095 rd   +    116,408 wr)
==63758== LL miss rate:          0.1% (       0.0%     +        0.4%  )
==63759== 
==63746== 
==63759== I   refs:      230,163,722
==63759== I1  misses:        111,858
==63759== LLi misses:         16,182
==63759== I1  miss rate:        0.05%
==63759== LLi miss rate:        0.01%
==63759== 
==63759== D   refs:      107,600,913  (81,268,299 rd   + 26,332,614 wr)
==63759== D1  misses:      1,038,217  (   831,383 rd   +    206,834 wr)
==63759== LLd misses:        181,289  (    64,879 rd   +    116,410 wr)
==63759== D1  miss rate:         1.0% (       1.0%     +        0.8%  )
==63759== LLd miss rate:         0.2% (       0.1%     +        0.4%  )
==63759== 
==63759== LL refs:         1,150,075  (   943,241 rd   +    206,834 wr)
==63759== LL misses:         197,471  (    81,061 rd   +    116,410 wr)
==63759== LL miss rate:          0.1% (       0.0%     +        0.4%  )
==63746== I   refs:      230,431,181
==63746== I1  misses:        109,589
==63746== LLi misses:         16,206
==63746== I1  miss rate:        0.05%
==63746== LLi miss rate:        0.01%
==63746== 
==63746== D   refs:      107,629,435  (81,316,991 rd   + 26,312,444 wr)
==63746== D1  misses:      1,039,500  (   833,725 rd   +    205,775 wr)
==63746== LLd misses:        181,046  (    64,958 rd   +    116,088 wr)
==63746== D1  miss rate:         1.0% (       1.0%     +        0.8%  )
==63746== LLd miss rate:         0.2% (       0.1%     +        0.4%  )
==63746== 
==63746== LL refs:         1,149,089  (   943,314 rd   +    205,775 wr)
==63746== LL misses:         197,252  (    81,164 rd   +    116,088 wr)
==63746== LL miss rate:          0.1% (       0.0%     +        0.4%  )
==63745== 
==63753== 
==63745== I   refs:      236,563,010
==63745== I1  misses:        109,344
==63745== LLi misses:         16,207
==63745== I1  miss rate:        0.05%
==63745== LLi miss rate:        0.01%
==63745== 
==63745== D   refs:      110,688,785  (83,703,055 rd   + 26,985,730 wr)
==63745== D1  misses:      1,038,492  (   832,906 rd   +    205,586 wr)
==63745== LLd misses:        181,049  (    64,950 rd   +    116,099 wr)
==63745== D1  miss rate:         0.9% (       1.0%     +        0.8%  )
==63745== LLd miss rate:         0.2% (       0.1%     +        0.4%  )
==63745== 
==63745== LL refs:         1,147,836  (   942,250 rd   +    205,586 wr)
==63745== LL misses:         197,256  (    81,157 rd   +    116,099 wr)
==63745== LL miss rate:          0.1% (       0.0%     +        0.4%  )
==63753== I   refs:      227,959,512
==63753== I1  misses:        109,183
==63753== LLi misses:         16,180
==63753== I1  miss rate:        0.05%
==63753== LLi miss rate:        0.01%
==63753== 
==63753== D   refs:      106,416,243  (80,366,258 rd   + 26,049,985 wr)
==63753== D1  misses:      1,039,924  (   833,891 rd   +    206,033 wr)
==63753== LLd misses:        181,319  (    64,976 rd   +    116,343 wr)
==63753== D1  miss rate:         1.0% (       1.0%     +        0.8%  )
==63753== LLd miss rate:         0.2% (       0.1%     +        0.4%  )
==63753== 
==63753== LL refs:         1,149,107  (   943,074 rd   +    206,033 wr)
==63753== LL misses:         197,499  (    81,156 rd   +    116,343 wr)
==63753== LL miss rate:          0.1% (       0.0%     +        0.4%  )
==63754== 
==63749== 
==63754== I   refs:      239,892,009
==63754== I1  misses:        111,754
==63754== LLi misses:         16,183
==63754== I1  miss rate:        0.05%
==63754== LLi miss rate:        0.01%
==63754== 
==63754== D   refs:      112,420,179  (85,032,390 rd   + 27,387,789 wr)
==63754== D1  misses:      1,038,358  (   832,544 rd   +    205,814 wr)
==63754== LLd misses:        181,299  (    64,952 rd   +    116,347 wr)
==63754== D1  miss rate:         0.9% (       1.0%     +        0.8%  )
==63754== LLd miss rate:         0.2% (       0.1%     +        0.4%  )
==63754== 
==63754== LL refs:         1,150,112  (   944,298 rd   +    205,814 wr)
==63754== LL misses:         197,482  (    81,135 rd   +    116,347 wr)
==63754== LL miss rate:          0.1% (       0.0%     +        0.4%  )
==63749== I   refs:      236,575,325
==63749== I1  misses:        109,568
==63749== LLi misses:         16,208
==63749== I1  miss rate:        0.05%
==63749== LLi miss rate:        0.01%
==63749== 
==63749== D   refs:      110,722,341  (83,715,962 rd   + 27,006,379 wr)
==63749== D1  misses:      1,039,449  (   833,459 rd   +    205,990 wr)
==63749== LLd misses:        181,305  (    64,969 rd   +    116,336 wr)
==63749== D1  miss rate:         0.9% (       1.0%     +        0.8%  )
==63749== LLd miss rate:         0.2% (       0.1%     +        0.4%  )
==63749== 
==63749== LL refs:         1,149,017  (   943,027 rd   +    205,990 wr)
==63749== LL misses:         197,513  (    81,177 rd   +    116,336 wr)
==63749== LL miss rate:          0.1% (       0.0%     +        0.4%  )
==63752== 
==63752== I   refs:      256,888,415
==63752== I1  misses:        109,179
==63752== LLi misses:         16,152
==63752== I1  miss rate:        0.04%
==63752== LLi miss rate:        0.01%
==63752== 
==63752== D   refs:      120,805,224  (91,569,935 rd   + 29,235,289 wr)
==63752== D1  misses:      1,038,689  (   831,797 rd   +    206,892 wr)
==63752== LLd misses:        181,064  (    64,912 rd   +    116,152 wr)
==63752== D1  miss rate:         0.9% (       0.9%     +        0.7%  )
==63752== LLd miss rate:         0.1% (       0.1%     +        0.4%  )
==63752== 
==63752== LL refs:         1,147,868  (   940,976 rd   +    206,892 wr)
==63752== LL misses:         197,216  (    81,064 rd   +    116,152 wr)
==63752== LL miss rate:          0.1% (       0.0%     +        0.4%  )
