Sender: LSF System <lsfadmin@eu-a6-008-10>
Subject: Job 199900728: <polybench_mpi_gramschmidt-P2-D1024> in cluster <euler> Done

Job <polybench_mpi_gramschmidt-P2-D1024> was submitted from host <eu-login-09> by user <jpassweg> in cluster <euler> at Mon Jan 10 17:23:21 2022
Job was executed on host(s) <2*eu-a6-008-10>, in queue <hpc.24h>, as user <jpassweg> in cluster <euler> at Mon Jan 10 17:23:43 2022
</cluster/home/jpassweg> was used as the home directory.
</cluster/home/jpassweg/dphpc-project/benchmark/2022-01-10_17-23-20-polybench_mpi_gramschmidt/P2-D1024> was used as the working directory.
Started at Mon Jan 10 17:23:43 2022
Terminated at Mon Jan 10 17:24:25 2022
Results reported at Mon Jan 10 17:24:25 2022

Your job looked like:

------------------------------------------------------------
# LSBATCH: User input
lscpu >> /cluster/home/jpassweg/dphpc-project/benchmark/2022-01-10_17-23-20-polybench_mpi_gramschmidt/P2-D1024/CPU_INFO.txt; mpirun -np 2  /cluster/home/jpassweg/dphpc-project/benchmark/2022-01-10_17-23-20-polybench_mpi_gramschmidt/snapshot/polybench_mpi_gramschmidt -d 1024 -b
------------------------------------------------------------

Successfully completed.

Resource usage summary:

    CPU time :                                   70.33 sec.
    Max Memory :                                 198 MB
    Average Memory :                             191.33 MB
    Total Requested Memory :                     2050.00 MB
    Delta Memory :                               1852.00 MB
    Max Swap :                                   -
    Max Processes :                              5
    Max Threads :                                15
    Run time :                                   56 sec.
    Turnaround time :                            64 sec.

The output (if any) follows:

***** LSB_Init >polybench_mpi_gramschmidt.1024x1024< writing to >lsb.polybench_mpi_gramschmidt.1024x1024.r0< *****
******* LSB_Finalize *******
