Sender: LSF System <lsfadmin@eu-a6-012-13>
Subject: Job 197656847: <classical_gram_mpi_omp-P18-D12> in cluster <euler> Exited

Job <classical_gram_mpi_omp-P18-D12> was submitted from host <eu-login-03> by user <fhoerold> in cluster <euler> at Tue Dec 21 08:31:31 2021
Job was executed on host(s) <18*eu-a6-012-13>, in queue <hpc.24h>, as user <fhoerold> in cluster <euler> at Tue Dec 21 18:48:03 2021
</cluster/home/fhoerold> was used as the home directory.
</cluster/home/fhoerold/Design_of_Parallel_and_High_Performance_Computing/dphpc-project/benchmark/2021-12-21_08-31-21-classical_gram_mpi_omp/P18-D12> was used as the working directory.
Started at Tue Dec 21 18:48:03 2021
Terminated at Tue Dec 21 18:48:17 2021
Results reported at Tue Dec 21 18:48:17 2021

Your job looked like:

------------------------------------------------------------
# LSBATCH: User input
lscpu >> /cluster/home/fhoerold/Design_of_Parallel_and_High_Performance_Computing/dphpc-project/benchmark/2021-12-21_08-31-21-classical_gram_mpi_omp/P18-D12/CPU_INFO.txt; mpirun -np 4  /cluster/home/fhoerold/Design_of_Parallel_and_High_Performance_Computing/dphpc-project/benchmark/2021-12-21_08-31-21-classical_gram_mpi_omp/snapshot/classical_gram_mpi_omp -d 4096 -b
------------------------------------------------------------

Exited with exit code 139.

Resource usage summary:

    CPU time :                                   12.00 sec.
    Max Memory :                                 2891 MB
    Average Memory :                             1503.33 MB
    Total Requested Memory :                     18792.00 MB
    Delta Memory :                               15901.00 MB
    Max Swap :                                   -
    Max Processes :                              7
    Max Threads :                                23
    Run time :                                   42 sec.
    Turnaround time :                            37006 sec.

The output (if any) follows:

***** LSB_Init >classical_gram_mpi_omp.4096x4096_0< writing to >lsb.classical_gram_mpi_omp.4096x4096_0.r0< *****
[eu-a6-012-13:43109:0:43170] Caught signal 11 (Segmentation fault: invalid permissions for mapped object at address 0x2b8fe167d000)
==== backtrace ====
[eu-a6-012-13:43106:0:43151] Caught signal 11 (Segmentation fault: invalid permissions for mapped object at address 0x2aad12543000)
==== backtrace ====
[eu-a6-012-13:43107:0:43147] Caught signal 11 (Segmentation fault: invalid permissions for mapped object at address 0x2b80872bf000)
==== backtrace ====
[eu-a6-012-13:43108:0:43167] Caught signal 11 (Segmentation fault: invalid permissions for mapped object at address 0x2b658068e000)
==== backtrace ====
    0  /cluster/spack/apps/linux-centos7-x86_64/gcc-8.2.0/ucx-1.6.1-f3pcfiiu6oav3fekzoxccr5irclwfiwv/lib/libucs.so.0(+0x1e874) [0x2b8fbe866874]
    1  /cluster/spack/apps/linux-centos7-x86_64/gcc-8.2.0/ucx-1.6.1-f3pcfiiu6oav3fekzoxccr5irclwfiwv/lib/libucs.so.0(+0x1eb18) [0x2b8fbe866b18]
    2  /cluster/home/fhoerold/Design_of_Parallel_and_High_Performance_Computing/dphpc-project/benchmark/2021-12-21_08-31-21-classical_gram_mpi_omp/snapshot/classical_gram_mpi_omp() [0x402610]
    0  /cluster/spack/apps/linux-centos7-x86_64/gcc-8.2.0/ucx-1.6.1-f3pcfiiu6oav3fekzoxccr5irclwfiwv/lib/libucs.so.0(+0x1e874) [0x2aace7712874]
    1  /cluster/spack/apps/linux-centos7-x86_64/gcc-8.2.0/ucx-1.6.1-f3pcfiiu6oav3fekzoxccr5irclwfiwv/lib/libucs.so.0(+0x1eb18) [0x2aace7712b18]
    2  /cluster/home/fhoerold/Design_of_Parallel_and_High_Performance_Computing/dphpc-project/benchmark/2021-12-21_08-31-21-classical_gram_mpi_omp/snapshot/classical_gram_mpi_omp() [0x402610]
    3  /cluster/spack/apps/linux-centos7-x86_64/gcc-4.8.5/gcc-8.2.0-6xqov2fhvbmehix42slain67vprec3fs/lib64/libgomp.so.1(+0x1651e) [0x2aace479851e]
    0  /cluster/spack/apps/linux-centos7-x86_64/gcc-8.2.0/ucx-1.6.1-f3pcfiiu6oav3fekzoxccr5irclwfiwv/lib/libucs.so.0(+0x1e874) [0x2b80645a8874]
    1  /cluster/spack/apps/linux-centos7-x86_64/gcc-8.2.0/ucx-1.6.1-f3pcfiiu6oav3fekzoxccr5irclwfiwv/lib/libucs.so.0(+0x1eb18) [0x2b80645a8b18]
    2  /cluster/home/fhoerold/Design_of_Parallel_and_High_Performance_Computing/dphpc-project/benchmark/2021-12-21_08-31-21-classical_gram_mpi_omp/snapshot/classical_gram_mpi_omp() [0x402610]
    3  /cluster/spack/apps/linux-centos7-x86_64/gcc-4.8.5/gcc-8.2.0-6xqov2fhvbmehix42slain67vprec3fs/lib64/libgomp.so.1(+0x1651e) [0x2b806162e51e]
    4  /usr/lib64/libpthread.so.0(+0x7ea5) [0x2b8062141ea5]
    3  /cluster/spack/apps/linux-centos7-x86_64/gcc-4.8.5/gcc-8.2.0-6xqov2fhvbmehix42slain67vprec3fs/lib64/libgomp.so.1(+0x1651e) [0x2b8fbb8ec51e]
    4  /usr/lib64/libpthread.so.0(+0x7ea5) [0x2b8fbc3ffea5]
    5  /usr/lib64/libc.so.6(clone+0x6d) [0x2b8fbc7129fd]
===================
    4  /usr/lib64/libpthread.so.0(+0x7ea5) [0x2aace52abea5]
    5  /usr/lib64/libc.so.6(clone+0x6d) [0x2aace55be9fd]
===================
    5  /usr/lib64/libc.so.6(clone+0x6d) [0x2b80624549fd]
===================
--------------------------------------------------------------------------
Primary job  terminated normally, but 1 process returned
a non-zero exit code. Per user-direction, the job has been aborted.
--------------------------------------------------------------------------
--------------------------------------------------------------------------
mpirun noticed that process rank 2 with PID 0 on node eu-a6-012-13 exited on signal 11 (Segmentation fault).
--------------------------------------------------------------------------
