Sender: LSF System <lsfadmin@eu-a6-007-09>
Subject: Job 200037787: <classical_gram_mpi-P32-D2048> in cluster <euler> Done

Job <classical_gram_mpi-P32-D2048> was submitted from host <eu-login-14> by user <fhoerold> in cluster <euler> at Tue Jan 11 22:44:17 2022
Job was executed on host(s) <32*eu-a6-007-09>, in queue <hpc.24h>, as user <fhoerold> in cluster <euler> at Wed Jan 12 02:10:40 2022
</cluster/home/fhoerold> was used as the home directory.
</cluster/home/fhoerold/Design_of_Parallel_and_High_Performance_Computing/dphpc-project/benchmark/2022-01-11_22-43-59-classical_gram_mpi/P32-D2048> was used as the working directory.
Started at Wed Jan 12 02:10:40 2022
Terminated at Wed Jan 12 02:11:18 2022
Results reported at Wed Jan 12 02:11:18 2022

Your job looked like:

------------------------------------------------------------
# LSBATCH: User input
lscpu >> /cluster/home/fhoerold/Design_of_Parallel_and_High_Performance_Computing/dphpc-project/benchmark/2022-01-11_22-43-59-classical_gram_mpi/P32-D2048/CPU_INFO.txt; mpirun -np 32  /cluster/home/fhoerold/Design_of_Parallel_and_High_Performance_Computing/dphpc-project/benchmark/2022-01-11_22-43-59-classical_gram_mpi/snapshot/classical_gram_mpi -d 2048 -b
------------------------------------------------------------

Successfully completed.

Resource usage summary:

    CPU time :                                   966.98 sec.
    Max Memory :                                 4639 MB
    Average Memory :                             2795.25 MB
    Total Requested Memory :                     32768.00 MB
    Delta Memory :                               28129.00 MB
    Max Swap :                                   -
    Max Processes :                              35
    Max Threads :                                139
    Run time :                                   38 sec.
    Turnaround time :                            12421 sec.

The output (if any) follows:

***** LSB_Init >classical_gram_mpi.2048x2048_0< writing to >lsb.classical_gram_mpi.2048x2048_0.r0< *****
******* LSB_Finalize *******
