Sender: LSF System <lsfadmin@eu-a6-003-15>
Subject: Job 197656791: <classical_gram_mpi_omp-P4-D9> in cluster <euler> Done

Job <classical_gram_mpi_omp-P4-D9> was submitted from host <eu-login-03> by user <fhoerold> in cluster <euler> at Tue Dec 21 08:31:22 2021
Job was executed on host(s) <4*eu-a6-003-15>, in queue <hpc.24h>, as user <fhoerold> in cluster <euler> at Tue Dec 21 08:31:34 2021
</cluster/home/fhoerold> was used as the home directory.
</cluster/home/fhoerold/Design_of_Parallel_and_High_Performance_Computing/dphpc-project/benchmark/2021-12-21_08-31-21-classical_gram_mpi_omp/P4-D9> was used as the working directory.
Started at Tue Dec 21 08:31:34 2021
Terminated at Tue Dec 21 08:31:47 2021
Results reported at Tue Dec 21 08:31:47 2021

Your job looked like:

------------------------------------------------------------
# LSBATCH: User input
lscpu >> /cluster/home/fhoerold/Design_of_Parallel_and_High_Performance_Computing/dphpc-project/benchmark/2021-12-21_08-31-21-classical_gram_mpi_omp/P4-D9/CPU_INFO.txt; mpirun -np 4  /cluster/home/fhoerold/Design_of_Parallel_and_High_Performance_Computing/dphpc-project/benchmark/2021-12-21_08-31-21-classical_gram_mpi_omp/snapshot/classical_gram_mpi_omp -d 512 -b
------------------------------------------------------------

Successfully completed.

Resource usage summary:

    CPU time :                                   18.00 sec.
    Max Memory :                                 349 MB
    Average Memory :                             336.00 MB
    Total Requested Memory :                     4096.00 MB
    Delta Memory :                               3747.00 MB
    Max Swap :                                   -
    Max Processes :                              7
    Max Threads :                                23
    Run time :                                   28 sec.
    Turnaround time :                            25 sec.

The output (if any) follows:

***** LSB_Init >classical_gram_mpi_omp.512x512_0< writing to >lsb.classical_gram_mpi_omp.512x512_0.r0< *****
******* LSB_Finalize *******
