Sender: LSF System <lsfadmin@eu-a6-011-23>
Subject: Job 199710105: <cholesky_blocked_mpi-P4-D4096> in cluster <euler> Done

Job <cholesky_blocked_mpi-P4-D4096> was submitted from host <eu-login-36> by user <sihaefliger> in cluster <euler> at Fri Jan  7 17:20:24 2022
Job was executed on host(s) <4*eu-a6-011-23>, in queue <hpc.24h>, as user <sihaefliger> in cluster <euler> at Fri Jan  7 17:29:26 2022
</cluster/home/sihaefliger> was used as the home directory.
</cluster/home/sihaefliger/projects/dphpc-project/benchmark/2022-01-07_17-20-20-cholesky_blocked_mpi/P4-D4096> was used as the working directory.
Started at Fri Jan  7 17:29:26 2022
Terminated at Fri Jan  7 17:42:47 2022
Results reported at Fri Jan  7 17:42:47 2022

Your job looked like:

------------------------------------------------------------
# LSBATCH: User input
lscpu >> /cluster/home/sihaefliger/projects/dphpc-project/benchmark/2022-01-07_17-20-20-cholesky_blocked_mpi/P4-D4096/CPU_INFO.txt; mpirun -np 4  /cluster/home/sihaefliger/projects/dphpc-project/benchmark/2022-01-07_17-20-20-cholesky_blocked_mpi/snapshot/cholesky_blocked_mpi -d 4096 -b -t 4
------------------------------------------------------------

Successfully completed.

Resource usage summary:

    CPU time :                                   3156.24 sec.
    Max Memory :                                 594 MB
    Average Memory :                             539.73 MB
    Total Requested Memory :                     4268.00 MB
    Delta Memory :                               3674.00 MB
    Max Swap :                                   -
    Max Processes :                              7
    Max Threads :                                23
    Run time :                                   802 sec.
    Turnaround time :                            1343 sec.

The output (if any) follows:

***** LSB_Init >cholesky_blocked_mpi.4096_0< writing to >lsb.cholesky_blocked_mpi.4096_0.r0< *****
******* LSB_Finalize *******
