Sender: LSF System <lsfadmin@eu-a6-001-17>
Subject: Job 200499121: <cholesky_openmp_ll_naive-P1-D2580> in cluster <euler> Done

Job <cholesky_openmp_ll_naive-P1-D2580> was submitted from host <eu-login-27> by user <sihaefliger> in cluster <euler> at Fri Jan 14 23:34:42 2022
Job was executed on host(s) <eu-a6-001-17>, in queue <hpc.24h>, as user <sihaefliger> in cluster <euler> at Fri Jan 14 23:35:00 2022
</cluster/home/sihaefliger> was used as the home directory.
</cluster/home/sihaefliger/projects/dphpc-project/benchmark/2022-01-14_23-34-41-cholesky_openmp_ll_naive/P1-D2580> was used as the working directory.
Started at Fri Jan 14 23:35:00 2022
Terminated at Fri Jan 14 23:37:25 2022
Results reported at Fri Jan 14 23:37:25 2022

Your job looked like:

------------------------------------------------------------
# LSBATCH: User input
lscpu >> /cluster/home/sihaefliger/projects/dphpc-project/benchmark/2022-01-14_23-34-41-cholesky_openmp_ll_naive/P1-D2580/CPU_INFO.txt;   /cluster/home/sihaefliger/projects/dphpc-project/benchmark/2022-01-14_23-34-41-cholesky_openmp_ll_naive/snapshot/cholesky_openmp_ll_naive -d 2580 -b 
------------------------------------------------------------

Successfully completed.

Resource usage summary:

    CPU time :                                   139.08 sec.
    Max Memory :                                 213 MB
    Average Memory :                             191.14 MB
    Total Requested Memory :                     1106.00 MB
    Delta Memory :                               893.00 MB
    Max Swap :                                   -
    Max Processes :                              4
    Max Threads :                                11
    Run time :                                   166 sec.
    Turnaround time :                            163 sec.

The output (if any) follows:

***** LSB_Init >cholesky_openmp_ll_naive.2580< writing to >lsb.cholesky_openmp_ll_naive.2580.r0< *****
******* LSB_Finalize *******
