Sender: LSF System <lsfadmin@eu-a6-012-20>
Subject: Job 198001280: <cholesky_openmp_ll_naive-P1-D64> in cluster <euler> Done

Job <cholesky_openmp_ll_naive-P1-D64> was submitted from host <eu-login-35> by user <forstesa> in cluster <euler> at Thu Dec 23 18:11:57 2021
Job was executed on host(s) <eu-a6-012-20>, in queue <hpc.24h>, as user <forstesa> in cluster <euler> at Thu Dec 23 18:12:31 2021
</cluster/home/forstesa> was used as the home directory.
</cluster/home/forstesa/repos/dphpc-project/benchmark/2021-12-23_18-10-59-cholesky_openmp_ll_naive/P1-D64> was used as the working directory.
Started at Thu Dec 23 18:12:31 2021
Terminated at Thu Dec 23 18:12:42 2021
Results reported at Thu Dec 23 18:12:42 2021

Your job looked like:

------------------------------------------------------------
# LSBATCH: User input
lscpu >> /cluster/home/forstesa/repos/dphpc-project/benchmark/2021-12-23_18-10-59-cholesky_openmp_ll_naive/P1-D64/CPU_INFO.txt;   /cluster/home/forstesa/repos/dphpc-project/benchmark/2021-12-23_18-10-59-cholesky_openmp_ll_naive/snapshot/cholesky_openmp_ll_naive -d 64 -b
------------------------------------------------------------

Successfully completed.

Resource usage summary:

    CPU time :                                   0.36 sec.
    Max Memory :                                 89 MB
    Average Memory :                             89.00 MB
    Total Requested Memory :                     1024.00 MB
    Delta Memory :                               935.00 MB
    Max Swap :                                   -
    Max Processes :                              4
    Max Threads :                                11
    Run time :                                   27 sec.
    Turnaround time :                            45 sec.

The output (if any) follows:

***** LSB_Init >cholesky_openmp_ll_naive.64< writing to >lsb.cholesky_openmp_ll_naive.64.r0< *****
******* LSB_Finalize *******
