Sender: LSF System <lsfadmin@eu-a6-009-17>
Subject: Job 196175069: <cholesky_mpi_openmp_ll_naive-P4-D11> in cluster <euler> Done

Job <cholesky_mpi_openmp_ll_naive-P4-D11> was submitted from host <eu-login-13> by user <forstesa> in cluster <euler> at Sat Dec 11 01:13:25 2021
Job was executed on host(s) <4*eu-a6-009-17>, in queue <hpc.24h>, as user <forstesa> in cluster <euler> at Sat Dec 11 01:13:44 2021
</cluster/home/forstesa> was used as the home directory.
</cluster/home/forstesa/repos/dphpc-project/cholesky/benchmark/2021-12-11_01-13-24-cholesky_mpi_openmp_ll_naive/P4-D11> was used as the working directory.
Started at Sat Dec 11 01:13:44 2021
Terminated at Sat Dec 11 01:14:47 2021
Results reported at Sat Dec 11 01:14:47 2021

Your job looked like:

------------------------------------------------------------
# LSBATCH: User input
lscpu >> /cluster/home/forstesa/repos/dphpc-project/cholesky/benchmark/2021-12-11_01-13-24-cholesky_mpi_openmp_ll_naive/P4-D11/CPU_INFO.txt; mpirun -np 2  /cluster/home/forstesa/repos/dphpc-project/cholesky/benchmark/2021-12-11_01-13-24-cholesky_mpi_openmp_ll_naive/snapshot/cholesky_mpi_openmp_ll_naive -d 2048 -b
------------------------------------------------------------

Successfully completed.

Resource usage summary:

    CPU time :                                   117.22 sec.
    Max Memory :                                 229 MB
    Average Memory :                             229.00 MB
    Total Requested Memory :                     4096.00 MB
    Delta Memory :                               3867.00 MB
    Max Swap :                                   -
    Max Processes :                              5
    Max Threads :                                15
    Run time :                                   77 sec.
    Turnaround time :                            82 sec.

The output (if any) follows:

***** LSB_Init >cholesky_mpi_openmp_ll_naive.2048_0< writing to >lsb.cholesky_mpi_openmp_ll_naive.2048_0.r0< *****
******* LSB_Finalize *******
