Sender: LSF System <lsfadmin@eu-a6-007-03>
Subject: Job 197657098: <classical_gram_optimized-P8-D12> in cluster <euler> Done

Job <classical_gram_optimized-P8-D12> was submitted from host <eu-login-03> by user <fhoerold> in cluster <euler> at Tue Dec 21 08:33:01 2021
Job was executed on host(s) <8*eu-a6-007-03>, in queue <hpc.24h>, as user <fhoerold> in cluster <euler> at Tue Dec 21 09:33:29 2021
</cluster/home/fhoerold> was used as the home directory.
</cluster/home/fhoerold/Design_of_Parallel_and_High_Performance_Computing/dphpc-project/benchmark/2021-12-21_08-32-54-classical_gram_optimized/P8-D12> was used as the working directory.
Started at Tue Dec 21 09:33:29 2021
Terminated at Tue Dec 21 11:00:23 2021
Results reported at Tue Dec 21 11:00:23 2021

Your job looked like:

------------------------------------------------------------
# LSBATCH: User input
lscpu >> /cluster/home/fhoerold/Design_of_Parallel_and_High_Performance_Computing/dphpc-project/benchmark/2021-12-21_08-32-54-classical_gram_optimized/P8-D12/CPU_INFO.txt;   /cluster/home/fhoerold/Design_of_Parallel_and_High_Performance_Computing/dphpc-project/benchmark/2021-12-21_08-32-54-classical_gram_optimized/snapshot/classical_gram_optimized -d 4096 -b
------------------------------------------------------------

Successfully completed.

Resource usage summary:

    CPU time :                                   5194.00 sec.
    Max Memory :                                 476 MB
    Average Memory :                             476.00 MB
    Total Requested Memory :                     8800.00 MB
    Delta Memory :                               8324.00 MB
    Max Swap :                                   -
    Max Processes :                              4
    Max Threads :                                11
    Run time :                                   5237 sec.
    Turnaround time :                            8842 sec.

The output (if any) follows:

***** LSB_Init >classical_gram_optimized.4096x4096< writing to >lsb.classical_gram_optimized.4096x4096.r0< *****
******* LSB_Finalize *******
