Sender: LSF System <lsfadmin@eu-a6-004-19>
Subject: Job 199691018: <classical_gram_mpi_omp-P1-D32> in cluster <euler> Done

Job <classical_gram_mpi_omp-P1-D32> was submitted from host <eu-login-30> by user <fhoerold> in cluster <euler> at Fri Jan  7 12:12:19 2022
Job was executed on host(s) <eu-a6-004-19>, in queue <hpc.24h>, as user <fhoerold> in cluster <euler> at Fri Jan  7 12:13:12 2022
</cluster/home/fhoerold> was used as the home directory.
</cluster/home/fhoerold/Design_of_Parallel_and_High_Performance_Computing/dphpc-project/benchmark/2022-01-07_12-12-19-classical_gram_mpi_omp/P1-D32> was used as the working directory.
Started at Fri Jan  7 12:13:12 2022
Terminated at Fri Jan  7 12:13:21 2022
Results reported at Fri Jan  7 12:13:21 2022

Your job looked like:

------------------------------------------------------------
# LSBATCH: User input
lscpu >> /cluster/home/fhoerold/Design_of_Parallel_and_High_Performance_Computing/dphpc-project/benchmark/2022-01-07_12-12-19-classical_gram_mpi_omp/P1-D32/CPU_INFO.txt; mpirun -np 1  /cluster/home/fhoerold/Design_of_Parallel_and_High_Performance_Computing/dphpc-project/benchmark/2022-01-07_12-12-19-classical_gram_mpi_omp/snapshot/classical_gram_mpi_omp -d 32 -b
------------------------------------------------------------

Successfully completed.

Resource usage summary:

    CPU time :                                   0.81 sec.
    Max Memory :                                 96 MB
    Average Memory :                             54.67 MB
    Total Requested Memory :                     1024.00 MB
    Delta Memory :                               928.00 MB
    Max Swap :                                   -
    Max Processes :                              4
    Max Threads :                                11
    Run time :                                   38 sec.
    Turnaround time :                            62 sec.

The output (if any) follows:

***** LSB_Init >classical_gram_mpi_omp.32x32_0< writing to >lsb.classical_gram_mpi_omp.32x32_0.r0< *****
******* LSB_Finalize *******
