Sender: LSF System <lsfadmin@eu-a6-005-18>
Subject: Job 199583954: <classical_gram_mpi_omp-P36-D64> in cluster <euler> Done

Job <classical_gram_mpi_omp-P36-D64> was submitted from host <eu-login-34> by user <fhoerold> in cluster <euler> at Thu Jan  6 11:20:33 2022
Job was executed on host(s) <36*eu-a6-005-18>, in queue <hpc.24h>, as user <fhoerold> in cluster <euler> at Thu Jan  6 18:50:57 2022
</cluster/home/fhoerold> was used as the home directory.
</cluster/home/fhoerold/Design_of_Parallel_and_High_Performance_Computing/dphpc-project/benchmark/2022-01-06_11-20-16-classical_gram_mpi_omp/P36-D64> was used as the working directory.
Started at Thu Jan  6 18:50:57 2022
Terminated at Thu Jan  6 18:51:09 2022
Results reported at Thu Jan  6 18:51:09 2022

Your job looked like:

------------------------------------------------------------
# LSBATCH: User input
lscpu >> /cluster/home/fhoerold/Design_of_Parallel_and_High_Performance_Computing/dphpc-project/benchmark/2022-01-06_11-20-16-classical_gram_mpi_omp/P36-D64/CPU_INFO.txt; mpirun -np 1  /cluster/home/fhoerold/Design_of_Parallel_and_High_Performance_Computing/dphpc-project/benchmark/2022-01-06_11-20-16-classical_gram_mpi_omp/snapshot/classical_gram_mpi_omp -d 64 -b
------------------------------------------------------------

Successfully completed.

Resource usage summary:

    CPU time :                                   1.84 sec.
    Max Memory :                                 124 MB
    Average Memory :                             123.00 MB
    Total Requested Memory :                     36864.00 MB
    Delta Memory :                               36740.00 MB
    Max Swap :                                   -
    Max Processes :                              4
    Max Threads :                                11
    Run time :                                   37 sec.
    Turnaround time :                            27036 sec.

The output (if any) follows:

***** LSB_Init >classical_gram_mpi_omp.64x64_0< writing to >lsb.classical_gram_mpi_omp.64x64_0.r0< *****
******* LSB_Finalize *******
