Sender: LSF System <lsfadmin@eu-a6-008-08>
Subject: Job 199678900: <cholesky_blocked_mpi-P8-D128> in cluster <euler> Done

Job <cholesky_blocked_mpi-P8-D128> was submitted from host <eu-login-36> by user <sihaefliger> in cluster <euler> at Fri Jan  7 10:19:12 2022
Job was executed on host(s) <8*eu-a6-008-08>, in queue <hpc.24h>, as user <sihaefliger> in cluster <euler> at Fri Jan  7 10:28:51 2022
</cluster/home/sihaefliger> was used as the home directory.
</cluster/home/sihaefliger/projects/dphpc-project/benchmark/2022-01-07_10-19-02-cholesky_blocked_mpi/P8-D128> was used as the working directory.
Started at Fri Jan  7 10:28:51 2022
Terminated at Fri Jan  7 10:29:10 2022
Results reported at Fri Jan  7 10:29:10 2022

Your job looked like:

------------------------------------------------------------
# LSBATCH: User input
lscpu >> /cluster/home/sihaefliger/projects/dphpc-project/benchmark/2022-01-07_10-19-02-cholesky_blocked_mpi/P8-D128/CPU_INFO.txt; mpirun -np 8  /cluster/home/sihaefliger/projects/dphpc-project/benchmark/2022-01-07_10-19-02-cholesky_blocked_mpi/snapshot/cholesky_blocked_mpi -d 128 -b
------------------------------------------------------------

Successfully completed.

Resource usage summary:

    CPU time :                                   73.52 sec.
    Max Memory :                                 579 MB
    Average Memory :                             382.67 MB
    Total Requested Memory :                     8192.00 MB
    Delta Memory :                               7613.00 MB
    Max Swap :                                   -
    Max Processes :                              11
    Max Threads :                                39
    Run time :                                   19 sec.
    Turnaround time :                            598 sec.

The output (if any) follows:

***** LSB_Init >cholesky_blocked_mpi.128_0< writing to >lsb.cholesky_blocked_mpi.128_0.r0< *****
******* LSB_Finalize *******
