Sender: LSF System <lsfadmin@eu-a6-008-11>
Subject: Job 199363099: <cholesky_mpi_ll_naive-P1-D128> in cluster <euler> Done

Job <cholesky_mpi_ll_naive-P1-D128> was submitted from host <eu-login-14> by user <forstesa> in cluster <euler> at Wed Jan  5 10:45:52 2022
Job was executed on host(s) <eu-a6-008-11>, in queue <hpc.24h>, as user <forstesa> in cluster <euler> at Wed Jan  5 10:46:03 2022
</cluster/home/forstesa> was used as the home directory.
</cluster/home/forstesa/repos/dphpc-project/benchmark/2022-01-05_10-45-51-cholesky_mpi_ll_naive/P1-D128> was used as the working directory.
Started at Wed Jan  5 10:46:03 2022
Terminated at Wed Jan  5 10:46:09 2022
Results reported at Wed Jan  5 10:46:09 2022

Your job looked like:

------------------------------------------------------------
# LSBATCH: User input
lscpu >> /cluster/home/forstesa/repos/dphpc-project/benchmark/2022-01-05_10-45-51-cholesky_mpi_ll_naive/P1-D128/CPU_INFO.txt; mpirun -np 1  /cluster/home/forstesa/repos/dphpc-project/benchmark/2022-01-05_10-45-51-cholesky_mpi_ll_naive/snapshot/cholesky_mpi_ll_naive -d 128 -b
------------------------------------------------------------

Successfully completed.

Resource usage summary:

    CPU time :                                   0.50 sec.
    Max Memory :                                 89 MB
    Average Memory :                             89.00 MB
    Total Requested Memory :                     1024.00 MB
    Delta Memory :                               935.00 MB
    Max Swap :                                   -
    Max Processes :                              4
    Max Threads :                                11
    Run time :                                   12 sec.
    Turnaround time :                            17 sec.

The output (if any) follows:

***** LSB_Init >cholesky_mpi_ll_naive.128_0< writing to >lsb.cholesky_mpi_ll_naive.128_0.r0< *****
******* LSB_Finalize *******
