Sender: LSF System <lsfadmin@eu-a6-005-03>
Subject: Job 199678924: <cholesky_blocked_mpi-P32-D4096> in cluster <euler> Done

Job <cholesky_blocked_mpi-P32-D4096> was submitted from host <eu-login-36> by user <sihaefliger> in cluster <euler> at Fri Jan  7 10:19:19 2022
Job was executed on host(s) <32*eu-a6-005-03>, in queue <hpc.24h>, as user <sihaefliger> in cluster <euler> at Fri Jan  7 12:30:25 2022
</cluster/home/sihaefliger> was used as the home directory.
</cluster/home/sihaefliger/projects/dphpc-project/benchmark/2022-01-07_10-19-02-cholesky_blocked_mpi/P32-D4096> was used as the working directory.
Started at Fri Jan  7 12:30:25 2022
Terminated at Fri Jan  7 12:39:35 2022
Results reported at Fri Jan  7 12:39:35 2022

Your job looked like:

------------------------------------------------------------
# LSBATCH: User input
lscpu >> /cluster/home/sihaefliger/projects/dphpc-project/benchmark/2022-01-07_10-19-02-cholesky_blocked_mpi/P32-D4096/CPU_INFO.txt; mpirun -np 32  /cluster/home/sihaefliger/projects/dphpc-project/benchmark/2022-01-07_10-19-02-cholesky_blocked_mpi/snapshot/cholesky_blocked_mpi -d 4096 -b
------------------------------------------------------------

Successfully completed.

Resource usage summary:

    CPU time :                                   17318.62 sec.
    Max Memory :                                 2829 MB
    Average Memory :                             2468.55 MB
    Total Requested Memory :                     32768.00 MB
    Delta Memory :                               29939.00 MB
    Max Swap :                                   -
    Max Processes :                              35
    Max Threads :                                139
    Run time :                                   550 sec.
    Turnaround time :                            8416 sec.

The output (if any) follows:

***** LSB_Init >cholesky_blocked_mpi.4096_0< writing to >lsb.cholesky_blocked_mpi.4096_0.r0< *****
******* LSB_Finalize *******
