Sender: LSF System <lsfadmin@eu-a6-001-02>
Subject: Job 193114274: <cholesky-P2-D5> in cluster <euler> Done

Job <cholesky-P2-D5> was submitted from host <eu-login-43> by user <forstesa> in cluster <euler> at Wed Nov 24 10:18:21 2021
Job was executed on host(s) <2*eu-a6-001-02>, in queue <hpc.4h>, as user <forstesa> in cluster <euler> at Wed Nov 24 10:18:49 2021
</cluster/home/forstesa> was used as the home directory.
</cluster/home/forstesa/repos/dphpc-project/cholesky/benchmark/2021-11-24_10-18-21-cholesky/P2-D5> was used as the working directory.
Started at Wed Nov 24 10:18:49 2021
Terminated at Wed Nov 24 10:19:00 2021
Results reported at Wed Nov 24 10:19:00 2021

Your job looked like:

------------------------------------------------------------
# LSBATCH: User input
lscpu >> /cluster/home/forstesa/repos/dphpc-project/cholesky/benchmark/2021-11-24_10-18-21-cholesky/P2-D5/CPU_INFO.txt; mpirun /cluster/home/forstesa/repos/dphpc-project/cholesky/benchmark/2021-11-24_10-18-21-cholesky/snapshot/cholesky -d 32 -b
------------------------------------------------------------

Successfully completed.

Resource usage summary:

    CPU time :                                   0.71 sec.
    Max Memory :                                 152 MB
    Average Memory :                             101.67 MB
    Total Requested Memory :                     2048.00 MB
    Delta Memory :                               1896.00 MB
    Max Swap :                                   -
    Max Processes :                              5
    Max Threads :                                15
    Run time :                                   10 sec.
    Turnaround time :                            39 sec.

The output (if any) follows:

***** LSB_Init >cholesky.32< writing to >lsb.cholesky.32.r0< *****
******* LSB_Finalize *******
