Sender: LSF System <lsfadmin@eu-a6-003-14>
Subject: Job 193212913: <gramschmidt_mpi-P8-D13> in cluster <euler> Exited

Job <gramschmidt_mpi-P8-D13> was submitted from host <eu-login-26> by user <sihaefliger> in cluster <euler> at Thu Nov 25 00:13:59 2021
Job was executed on host(s) <8*eu-a6-003-14>, in queue <hpc.24h>, as user <sihaefliger> in cluster <euler> at Thu Nov 25 08:01:28 2021
</cluster/home/sihaefliger> was used as the home directory.
</cluster/home/sihaefliger/projects/dphpc-project/gramschmidt/benchmark/2021-11-25_00-13-54-gramschmidt_mpi/P8-D13> was used as the working directory.
Started at Thu Nov 25 08:01:28 2021
Terminated at Thu Nov 25 08:01:40 2021
Results reported at Thu Nov 25 08:01:40 2021

Your job looked like:

------------------------------------------------------------
# LSBATCH: User input
lscpu >> /cluster/home/sihaefliger/projects/dphpc-project/gramschmidt/benchmark/2021-11-25_00-13-54-gramschmidt_mpi/P8-D13/CPU_INFO.txt; mpirun /cluster/home/sihaefliger/projects/dphpc-project/gramschmidt/benchmark/2021-11-25_00-13-54-gramschmidt_mpi/snapshot/gramschmidt_mpi -d 8192 -b
------------------------------------------------------------

TERM_MEMLIMIT: job killed after reaching LSF memory usage limit.
Exited with exit code 137.

Resource usage summary:

    CPU time :                                   21.00 sec.
    Max Memory :                                 14288 MB
    Average Memory :                             1712.67 MB
    Total Requested Memory :                     8192.00 MB
    Delta Memory :                               -6096.00 MB
    Max Swap :                                   -
    Max Processes :                              11
    Max Threads :                                39
    Run time :                                   12 sec.
    Turnaround time :                            28061 sec.

The output (if any) follows:

***** LSB_Init >gramschmidt_mpi.8192x8192< writing to >lsb.gramschmidt_mpi.8192x8192.r0< *****
***** LSB_Init >gramschmidt_mpi.8192x8192< writing to >lsb.gramschmidt_mpi.8192x8192.r0< *****
***** LSB_Init >gramschmidt_mpi.8192x8192< writing to >lsb.gramschmidt_mpi.8192x8192.r0< *****
***** LSB_Init >gramschmidt_mpi.8192x8192< writing to >lsb.gramschmidt_mpi.8192x8192.r0-1< *****
***** LSB_Init >gramschmidt_mpi.8192x8192< writing to >lsb.gramschmidt_mpi.8192x8192.r0-2< *****
***** LSB_Init >gramschmidt_mpi.8192x8192< writing to >lsb.gramschmidt_mpi.8192x8192.r0-2< *****
***** LSB_Init >gramschmidt_mpi.8192x8192< writing to >lsb.gramschmidt_mpi.8192x8192.r0-3< *****
***** LSB_Init >gramschmidt_mpi.8192x8192< writing to >lsb.gramschmidt_mpi.8192x8192.r0-4< *****
--------------------------------------------------------------------------
Primary job  terminated normally, but 1 process returned
a non-zero exit code. Per user-direction, the job has been aborted.
--------------------------------------------------------------------------
--------------------------------------------------------------------------
mpirun noticed that process rank 5 with PID 0 on node eu-a6-003-14 exited on signal 9 (Killed).
--------------------------------------------------------------------------
