Sender: LSF System <lsfadmin@eu-a6-007-24>
Subject: Job 193252457: <classical_mpi-P32-D11> in cluster <euler> Done

Job <classical_mpi-P32-D11> was submitted from host <eu-login-26> by user <sihaefliger> in cluster <euler> at Thu Nov 25 10:22:05 2021
Job was executed on host(s) <32*eu-a6-007-24>, in queue <hpc.4h>, as user <sihaefliger> in cluster <euler> at Thu Nov 25 12:42:43 2021
</cluster/home/sihaefliger> was used as the home directory.
</cluster/home/sihaefliger/projects/dphpc-project/gramschmidt/benchmark/2021-11-25_10-21-48-classical_mpi/P32-D11> was used as the working directory.
Started at Thu Nov 25 12:42:43 2021
Terminated at Thu Nov 25 12:43:11 2021
Results reported at Thu Nov 25 12:43:11 2021

Your job looked like:

------------------------------------------------------------
# LSBATCH: User input
lscpu >> /cluster/home/sihaefliger/projects/dphpc-project/gramschmidt/benchmark/2021-11-25_10-21-48-classical_mpi/P32-D11/CPU_INFO.txt; mpirun /cluster/home/sihaefliger/projects/dphpc-project/gramschmidt/benchmark/2021-11-25_10-21-48-classical_mpi/snapshot/classical_mpi -d 2048 -b
------------------------------------------------------------

Successfully completed.

Resource usage summary:

    CPU time :                                   630.14 sec.
    Max Memory :                                 5456 MB
    Average Memory :                             5431.00 MB
    Total Requested Memory :                     32768.00 MB
    Delta Memory :                               27312.00 MB
    Max Swap :                                   1 MB
    Max Processes :                              35
    Max Threads :                                139
    Run time :                                   28 sec.
    Turnaround time :                            8466 sec.

The output (if any) follows:

***** LSB_Init >classical_mpi.2048x2048_0< writing to >lsb.classical_mpi.2048x2048_0.r0< *****
***** LSB_Init >classical_mpi.2048x2048_18< writing to >lsb.classical_mpi.2048x2048_18.r0< *****
***** LSB_Init >classical_mpi.2048x2048_2< writing to >lsb.classical_mpi.2048x2048_2.r0< *****
***** LSB_Init >classical_mpi.2048x2048_26< writing to >lsb.classical_mpi.2048x2048_26.r0< *****
***** LSB_Init >classical_mpi.2048x2048_24< writing to >lsb.classical_mpi.2048x2048_24.r0< *****
***** LSB_Init >classical_mpi.2048x2048_16< writing to >lsb.classical_mpi.2048x2048_16.r0< *****
***** LSB_Init >classical_mpi.2048x2048_10< writing to >lsb.classical_mpi.2048x2048_10.r0< *****
***** LSB_Init >classical_mpi.2048x2048_8< writing to >lsb.classical_mpi.2048x2048_8.r0< *****
***** LSB_Init >classical_mpi.2048x2048_20< writing to >lsb.classical_mpi.2048x2048_20.r0< *****
***** LSB_Init >classical_mpi.2048x2048_6< writing to >lsb.classical_mpi.2048x2048_6.r0< *****
***** LSB_Init >classical_mpi.2048x2048_22< writing to >lsb.classical_mpi.2048x2048_22.r0< *****
***** LSB_Init >classical_mpi.2048x2048_25< writing to >lsb.classical_mpi.2048x2048_25.r0< *****
***** LSB_Init >classical_mpi.2048x2048_28< writing to >lsb.classical_mpi.2048x2048_28.r0< *****
***** LSB_Init >classical_mpi.2048x2048_4< writing to >lsb.classical_mpi.2048x2048_4.r0< *****
***** LSB_Init >classical_mpi.2048x2048_29< writing to >lsb.classical_mpi.2048x2048_29.r0< *****
***** LSB_Init >classical_mpi.2048x2048_19< writing to >lsb.classical_mpi.2048x2048_19.r0< *****
***** LSB_Init >classical_mpi.2048x2048_14< writing to >lsb.classical_mpi.2048x2048_14.r0< *****
***** LSB_Init >classical_mpi.2048x2048_21< writing to >lsb.classical_mpi.2048x2048_21.r0< *****
***** LSB_Init >classical_mpi.2048x2048_11< writing to >lsb.classical_mpi.2048x2048_11.r0< *****
***** LSB_Init >classical_mpi.2048x2048_27< writing to >lsb.classical_mpi.2048x2048_27.r0< *****
***** LSB_Init >classical_mpi.2048x2048_1< writing to >lsb.classical_mpi.2048x2048_1.r0< *****
***** LSB_Init >classical_mpi.2048x2048_30< writing to >lsb.classical_mpi.2048x2048_30.r0< *****
***** LSB_Init >classical_mpi.2048x2048_23< writing to >lsb.classical_mpi.2048x2048_23.r0< *****
***** LSB_Init >classical_mpi.2048x2048_31< writing to >lsb.classical_mpi.2048x2048_31.r0< *****
***** LSB_Init >classical_mpi.2048x2048_3< writing to >lsb.classical_mpi.2048x2048_3.r0< *****
***** LSB_Init >classical_mpi.2048x2048_12< writing to >lsb.classical_mpi.2048x2048_12.r0< *****
***** LSB_Init >classical_mpi.2048x2048_15< writing to >lsb.classical_mpi.2048x2048_15.r0< *****
***** LSB_Init >classical_mpi.2048x2048_7< writing to >lsb.classical_mpi.2048x2048_7.r0< *****
***** LSB_Init >classical_mpi.2048x2048_5< writing to >lsb.classical_mpi.2048x2048_5.r0< *****
***** LSB_Init >classical_mpi.2048x2048_9< writing to >lsb.classical_mpi.2048x2048_9.r0< *****
***** LSB_Init >classical_mpi.2048x2048_17< writing to >lsb.classical_mpi.2048x2048_17.r0< *****
***** LSB_Init >classical_mpi.2048x2048_13< writing to >lsb.classical_mpi.2048x2048_13.r0< *****
******* LSB_Finalize *******
******* LSB_Finalize *******
******* LSB_Finalize *******
******* LSB_Finalize *******
******* LSB_Finalize *******
******* LSB_Finalize *******
******* LSB_Finalize *******
******* LSB_Finalize *******
******* LSB_Finalize *******
******* LSB_Finalize *******
******* LSB_Finalize *******
******* LSB_Finalize *******
******* LSB_Finalize *******
******* LSB_Finalize *******
******* LSB_Finalize *******
******* LSB_Finalize *******
******* LSB_Finalize *******
******* LSB_Finalize *******
******* LSB_Finalize *******
******* LSB_Finalize *******
******* LSB_Finalize *******
******* LSB_Finalize *******
******* LSB_Finalize *******
******* LSB_Finalize *******
******* LSB_Finalize *******
******* LSB_Finalize *******
******* LSB_Finalize *******
******* LSB_Finalize *******
******* LSB_Finalize *******
******* LSB_Finalize *******
******* LSB_Finalize *******
******* LSB_Finalize *******
