Sender: LSF System <lsfadmin@eu-a6-002-13>
Subject: Job 193170573: <classical-P1-D16> in cluster <euler> Exited

Job <classical-P1-D16> was submitted from host <eu-login-26> by user <sihaefliger> in cluster <euler> at Wed Nov 24 17:19:52 2021
Job was executed on host(s) <eu-a6-002-13>, in queue <hpc.24h>, as user <sihaefliger> in cluster <euler> at Wed Nov 24 17:20:06 2021
</cluster/home/sihaefliger> was used as the home directory.
</cluster/home/sihaefliger/projects/dphpc-project/gramschmidt/benchmark/2021-11-24_17-19-49-classical/P1-D16> was used as the working directory.
Started at Wed Nov 24 17:20:06 2021
Terminated at Wed Nov 24 17:20:08 2021
Results reported at Wed Nov 24 17:20:08 2021

Your job looked like:

------------------------------------------------------------
# LSBATCH: User input
lscpu >> /cluster/home/sihaefliger/projects/dphpc-project/gramschmidt/benchmark/2021-11-24_17-19-49-classical/P1-D16/CPU_INFO.txt; /cluster/home/sihaefliger/projects/dphpc-project/gramschmidt/benchmark/2021-11-24_17-19-49-classical/snapshot/classical -d 65536 -b
------------------------------------------------------------

Exited with exit code 139.

Resource usage summary:

    CPU time :                                   0.49 sec.
    Max Memory :                                 157 MB
    Average Memory :                             -
    Total Requested Memory :                     1024.00 MB
    Delta Memory :                               867.00 MB
    Max Swap :                                   -
    Max Processes :                              -
    Max Threads :                                -
    Run time :                                   23 sec.
    Turnaround time :                            16 sec.

The output (if any) follows:

[eu-a6-002-13:60407:0:60407] Caught signal 11 (Segmentation fault: address not mapped to object at address 0x159b000)
==== backtrace ====
/cluster/shadow/.lsbatch/1637770792.193170573: line 8: 60407 Segmentation fault      (core dumped) /cluster/home/sihaefliger/projects/dphpc-project/gramschmidt/benchmark/2021-11-24_17-19-49-classical/snapshot/classical -d 65536 -b
