Sender: LSF System <lsfadmin@eu-a6-004-01>
Subject: Job 199765365: <classical_gram_omp-P36-D1024> in cluster <euler> Done

Job <classical_gram_omp-P36-D1024> was submitted from host <eu-login-06> by user <fhoerold> in cluster <euler> at Sat Jan  8 15:47:52 2022
Job was executed on host(s) <36*eu-a6-004-01>, in queue <hpc.24h>, as user <fhoerold> in cluster <euler> at Sun Jan  9 08:40:01 2022
</cluster/home/fhoerold> was used as the home directory.
</cluster/home/fhoerold/Design_of_Parallel_and_High_Performance_Computing/dphpc-project/benchmark/2022-01-08_15-47-40-classical_gram_omp/P36-D1024> was used as the working directory.
Started at Sun Jan  9 08:40:01 2022
Terminated at Sun Jan  9 08:40:27 2022
Results reported at Sun Jan  9 08:40:27 2022

Your job looked like:

------------------------------------------------------------
# LSBATCH: User input
lscpu >> /cluster/home/fhoerold/Design_of_Parallel_and_High_Performance_Computing/dphpc-project/benchmark/2022-01-08_15-47-40-classical_gram_omp/P36-D1024/CPU_INFO.txt;   /cluster/home/fhoerold/Design_of_Parallel_and_High_Performance_Computing/dphpc-project/benchmark/2022-01-08_15-47-40-classical_gram_omp/snapshot/classical_gram_omp -d 1024 -b
------------------------------------------------------------

Successfully completed.

Resource usage summary:

    CPU time :                                   337.05 sec.
    Max Memory :                                 156 MB
    Average Memory :                             82.00 MB
    Total Requested Memory :                     36864.00 MB
    Delta Memory :                               36708.00 MB
    Max Swap :                                   -
    Max Processes :                              4
    Max Threads :                                11
    Run time :                                   24 sec.
    Turnaround time :                            60755 sec.

The output (if any) follows:

***** LSB_Init >classical_gram_omp.1024x1024< writing to >lsb.classical_gram_omp.1024x1024.r0< *****
******* LSB_Finalize *******
