Sender: LSF System <lsfadmin@eu-a6-009-17>
Subject: Job 197656938: <classical_gram_omp-P4-D8> in cluster <euler> Done

Job <classical_gram_omp-P4-D8> was submitted from host <eu-login-03> by user <fhoerold> in cluster <euler> at Tue Dec 21 08:32:19 2021
Job was executed on host(s) <4*eu-a6-009-17>, in queue <hpc.24h>, as user <fhoerold> in cluster <euler> at Tue Dec 21 08:33:05 2021
</cluster/home/fhoerold> was used as the home directory.
</cluster/home/fhoerold/Design_of_Parallel_and_High_Performance_Computing/dphpc-project/benchmark/2021-12-21_08-32-18-classical_gram_omp/P4-D8> was used as the working directory.
Started at Tue Dec 21 08:33:05 2021
Terminated at Tue Dec 21 08:33:15 2021
Results reported at Tue Dec 21 08:33:15 2021

Your job looked like:

------------------------------------------------------------
# LSBATCH: User input
lscpu >> /cluster/home/fhoerold/Design_of_Parallel_and_High_Performance_Computing/dphpc-project/benchmark/2021-12-21_08-32-18-classical_gram_omp/P4-D8/CPU_INFO.txt;   /cluster/home/fhoerold/Design_of_Parallel_and_High_Performance_Computing/dphpc-project/benchmark/2021-12-21_08-32-18-classical_gram_omp/snapshot/classical_gram_omp -d 256 -b
------------------------------------------------------------

Successfully completed.

Resource usage summary:

    CPU time :                                   2.74 sec.
    Max Memory :                                 110 MB
    Average Memory :                             102.00 MB
    Total Requested Memory :                     4096.00 MB
    Delta Memory :                               3986.00 MB
    Max Swap :                                   -
    Max Processes :                              4
    Max Threads :                                11
    Run time :                                   37 sec.
    Turnaround time :                            56 sec.

The output (if any) follows:

***** LSB_Init >classical_gram_omp.256x256< writing to >lsb.classical_gram_omp.256x256.r0< *****
******* LSB_Finalize *******
