Sender: LSF System <lsfadmin@eu-a6-001-03>
Subject: Job 199823363: <classical_gram_optimized-P1-D512> in cluster <euler> Done

Job <classical_gram_optimized-P1-D512> was submitted from host <eu-login-47> by user <fhoerold> in cluster <euler> at Sun Jan  9 17:24:04 2022
Job was executed on host(s) <eu-a6-001-03>, in queue <hpc.24h>, as user <fhoerold> in cluster <euler> at Sun Jan  9 17:24:27 2022
</cluster/home/fhoerold> was used as the home directory.
</cluster/home/fhoerold/Design_of_Parallel_and_High_Performance_Computing/dphpc-project/benchmark/2022-01-09_17-24-01-classical_gram_optimized/P1-D512> was used as the working directory.
Started at Sun Jan  9 17:24:27 2022
Terminated at Sun Jan  9 17:25:17 2022
Results reported at Sun Jan  9 17:25:17 2022

Your job looked like:

------------------------------------------------------------
# LSBATCH: User input
lscpu >> /cluster/home/fhoerold/Design_of_Parallel_and_High_Performance_Computing/dphpc-project/benchmark/2022-01-09_17-24-01-classical_gram_optimized/P1-D512/CPU_INFO.txt;  valgrind --tool=cachegrind /cluster/home/fhoerold/Design_of_Parallel_and_High_Performance_Computing/dphpc-project/benchmark/2022-01-09_17-24-01-classical_gram_optimized/snapshot/classical_gram_optimized -d 512 
------------------------------------------------------------

Successfully completed.

Resource usage summary:

    CPU time :                                   46.00 sec.
    Max Memory :                                 90 MB
    Average Memory :                             87.50 MB
    Total Requested Memory :                     1024.00 MB
    Delta Memory :                               934.00 MB
    Max Swap :                                   -
    Max Processes :                              4
    Max Threads :                                11
    Run time :                                   68 sec.
    Turnaround time :                            73 sec.

The output (if any) follows:

==69147== Cachegrind, a cache and branch-prediction profiler
==69147== Copyright (C) 2002-2017, and GNU GPL'd, by Nicholas Nethercote et al.
==69147== Using Valgrind-3.13.0 and LibVEX; rerun with -h for copyright info
==69147== Command: /cluster/home/fhoerold/Design_of_Parallel_and_High_Performance_Computing/dphpc-project/benchmark/2022-01-09_17-24-01-classical_gram_optimized/snapshot/classical_gram_optimized -d 512
==69147== 
--69147-- warning: L3 cache found, using its data for the LL simulation.
--69147-- warning: specified LL cache: line_size 64  assoc 11  total_size 25,952,256
--69147-- warning: simulated LL cache: line_size 64  assoc 12  total_size 25,165,824
==69147== WARNING: valgrind ignores shmget(shmflg) SHM_HUGETLB
==69147== 
==69147== I   refs:      1,755,048,341
==69147== I1  misses:           76,355
==69147== LLi misses:           17,427
==69147== I1  miss rate:          0.00%
==69147== LLi miss rate:          0.00%
==69147== 
==69147== D   refs:        689,639,611  (567,855,664 rd   + 121,783,947 wr)
==69147== D1  misses:       44,275,193  ( 43,707,992 rd   +     567,201 wr)
==69147== LLd misses:          282,867  (     65,190 rd   +     217,677 wr)
==69147== D1  miss rate:           6.4% (        7.7%     +         0.5%  )
==69147== LLd miss rate:           0.0% (        0.0%     +         0.2%  )
==69147== 
==69147== LL refs:          44,351,548  ( 43,784,347 rd   +     567,201 wr)
==69147== LL misses:           300,294  (     82,617 rd   +     217,677 wr)
==69147== LL miss rate:            0.0% (        0.0%     +         0.2%  )
