Sender: LSF System <lsfadmin@eu-a6-006-07>
Subject: Job 199710695: <cholesky_blocked_mpi-P16-D512> in cluster <euler> Done

Job <cholesky_blocked_mpi-P16-D512> was submitted from host <eu-login-36> by user <sihaefliger> in cluster <euler> at Fri Jan  7 17:23:47 2022
Job was executed on host(s) <16*eu-a6-006-07>, in queue <hpc.24h>, as user <sihaefliger> in cluster <euler> at Sat Jan  8 01:31:29 2022
</cluster/home/sihaefliger> was used as the home directory.
</cluster/home/sihaefliger/projects/dphpc-project/benchmark/2022-01-07_17-23-37-cholesky_blocked_mpi/P16-D512> was used as the working directory.
Started at Sat Jan  8 01:31:29 2022
Terminated at Sat Jan  8 01:31:44 2022
Results reported at Sat Jan  8 01:31:44 2022

Your job looked like:

------------------------------------------------------------
# LSBATCH: User input
lscpu >> /cluster/home/sihaefliger/projects/dphpc-project/benchmark/2022-01-07_17-23-37-cholesky_blocked_mpi/P16-D512/CPU_INFO.txt; mpirun -np 16  /cluster/home/sihaefliger/projects/dphpc-project/benchmark/2022-01-07_17-23-37-cholesky_blocked_mpi/snapshot/cholesky_blocked_mpi -d 512 -b -t 256
------------------------------------------------------------

Successfully completed.

Resource usage summary:

    CPU time :                                   133.67 sec.
    Max Memory :                                 1193 MB
    Average Memory :                             790.00 MB
    Total Requested Memory :                     16384.00 MB
    Delta Memory :                               15191.00 MB
    Max Swap :                                   -
    Max Processes :                              19
    Max Threads :                                71
    Run time :                                   15 sec.
    Turnaround time :                            29277 sec.

The output (if any) follows:

***** LSB_Init >cholesky_blocked_mpi.512_0< writing to >lsb.cholesky_blocked_mpi.512_0.r0< *****
******* LSB_Finalize *******
