Sender: LSF System <lsfadmin@eu-a6-005-09>
Subject: Job 198002425: <cholesky_openmp_simd_ll_naive-P16-D2896> in cluster <euler> Done

Job <cholesky_openmp_simd_ll_naive-P16-D2896> was submitted from host <eu-login-35> by user <forstesa> in cluster <euler> at Thu Dec 23 18:15:52 2021
Job was executed on host(s) <16*eu-a6-005-09>, in queue <hpc.24h>, as user <forstesa> in cluster <euler> at Thu Dec 23 19:43:18 2021
</cluster/home/forstesa> was used as the home directory.
</cluster/home/forstesa/repos/dphpc-project/benchmark/2021-12-23_18-15-48-cholesky_openmp_simd_ll_naive/P16-D2896> was used as the working directory.
Started at Thu Dec 23 19:43:18 2021
Terminated at Thu Dec 23 19:45:33 2021
Results reported at Thu Dec 23 19:45:33 2021

Your job looked like:

------------------------------------------------------------
# LSBATCH: User input
lscpu >> /cluster/home/forstesa/repos/dphpc-project/benchmark/2021-12-23_18-15-48-cholesky_openmp_simd_ll_naive/P16-D2896/CPU_INFO.txt;   /cluster/home/forstesa/repos/dphpc-project/benchmark/2021-12-23_18-15-48-cholesky_openmp_simd_ll_naive/snapshot/cholesky_openmp_simd_ll_naive -d 2896 -b
------------------------------------------------------------

Successfully completed.

Resource usage summary:

    CPU time :                                   173.55 sec.
    Max Memory :                                 212 MB
    Average Memory :                             212.00 MB
    Total Requested Memory :                     16384.00 MB
    Delta Memory :                               16172.00 MB
    Max Swap :                                   -
    Max Processes :                              4
    Max Threads :                                11
    Run time :                                   134 sec.
    Turnaround time :                            5381 sec.

The output (if any) follows:

***** LSB_Init >cholesky_openmp_simd_ll_naive.2896< writing to >lsb.cholesky_openmp_simd_ll_naive.2896.r0< *****
******* LSB_Finalize *******
