Sender: LSF System <lsfadmin@eu-a6-004-19>
Subject: Job 199322614: <classical_gram_mpi_omp-P16-D32> in cluster <euler> Done

Job <classical_gram_mpi_omp-P16-D32> was submitted from host <eu-login-45> by user <fhoerold> in cluster <euler> at Tue Jan  4 22:25:02 2022
Job was executed on host(s) <16*eu-a6-004-19>, in queue <hpc.24h>, as user <fhoerold> in cluster <euler> at Tue Jan  4 22:26:31 2022
</cluster/home/fhoerold> was used as the home directory.
</cluster/home/fhoerold/Design_of_Parallel_and_High_Performance_Computing/dphpc-project/benchmark/2022-01-04_22-24-33-classical_gram_mpi_omp/P16-D32> was used as the working directory.
Started at Tue Jan  4 22:26:31 2022
Terminated at Tue Jan  4 22:26:44 2022
Results reported at Tue Jan  4 22:26:44 2022

Your job looked like:

------------------------------------------------------------
# LSBATCH: User input
lscpu >> /cluster/home/fhoerold/Design_of_Parallel_and_High_Performance_Computing/dphpc-project/benchmark/2022-01-04_22-24-33-classical_gram_mpi_omp/P16-D32/CPU_INFO.txt; mpirun -np 4  /cluster/home/fhoerold/Design_of_Parallel_and_High_Performance_Computing/dphpc-project/benchmark/2022-01-04_22-24-33-classical_gram_mpi_omp/snapshot/classical_gram_mpi_omp -d 32 -b
------------------------------------------------------------

Successfully completed.

Resource usage summary:

    CPU time :                                   16.08 sec.
    Max Memory :                                 310 MB
    Average Memory :                             308.00 MB
    Total Requested Memory :                     16384.00 MB
    Delta Memory :                               16074.00 MB
    Max Swap :                                   -
    Max Processes :                              7
    Max Threads :                                23
    Run time :                                   36 sec.
    Turnaround time :                            102 sec.

The output (if any) follows:

***** LSB_Init >classical_gram_mpi_omp.32x32_0< writing to >lsb.classical_gram_mpi_omp.32x32_0.r0< *****
******* LSB_Finalize *******
