Sender: LSF System <lsfadmin@eu-a6-008-10>
Subject: Job 199952266: <polybench_mpi_gramschmidt_splitr-P18-D2048> in cluster <euler> Done

Job <polybench_mpi_gramschmidt_splitr-P18-D2048> was submitted from host <eu-login-39> by user <jpassweg> in cluster <euler> at Tue Jan 11 02:33:29 2022
Job was executed on host(s) <18*eu-a6-008-10>, in queue <hpc.24h>, as user <jpassweg> in cluster <euler> at Tue Jan 11 03:48:11 2022
</cluster/home/jpassweg> was used as the home directory.
</cluster/home/jpassweg/dphpc-project/benchmark/2022-01-11_02-33-20-polybench_mpi_gramschmidt_splitr/P18-D2048> was used as the working directory.
Started at Tue Jan 11 03:48:11 2022
Terminated at Tue Jan 11 03:49:00 2022
Results reported at Tue Jan 11 03:49:00 2022

Your job looked like:

------------------------------------------------------------
# LSBATCH: User input
lscpu >> /cluster/home/jpassweg/dphpc-project/benchmark/2022-01-11_02-33-20-polybench_mpi_gramschmidt_splitr/P18-D2048/CPU_INFO.txt; mpirun -np 18  /cluster/home/jpassweg/dphpc-project/benchmark/2022-01-11_02-33-20-polybench_mpi_gramschmidt_splitr/snapshot/polybench_mpi_gramschmidt_splitr -d 2048 -b
------------------------------------------------------------

Successfully completed.

Resource usage summary:

    CPU time :                                   763.75 sec.
    Max Memory :                                 1499 MB
    Average Memory :                             1472.25 MB
    Total Requested Memory :                     18432.00 MB
    Delta Memory :                               16933.00 MB
    Max Swap :                                   -
    Max Processes :                              21
    Max Threads :                                79
    Run time :                                   49 sec.
    Turnaround time :                            4531 sec.

The output (if any) follows:

***** LSB_Init >polybench_mpi_gramschmidt_splitr.2048x2048< writing to >lsb.polybench_mpi_gramschmidt_splitr.2048x2048.r0< *****
******* LSB_Finalize *******
