Sender: LSF System <lsfadmin@eu-a6-003-08>
Subject: Job 199900751: <polybench_mpi_gramschmidt-P16-D512> in cluster <euler> Done

Job <polybench_mpi_gramschmidt-P16-D512> was submitted from host <eu-login-09> by user <jpassweg> in cluster <euler> at Mon Jan 10 17:23:27 2022
Job was executed on host(s) <16*eu-a6-003-08>, in queue <hpc.24h>, as user <jpassweg> in cluster <euler> at Mon Jan 10 17:27:13 2022
</cluster/home/jpassweg> was used as the home directory.
</cluster/home/jpassweg/dphpc-project/benchmark/2022-01-10_17-23-20-polybench_mpi_gramschmidt/P16-D512> was used as the working directory.
Started at Mon Jan 10 17:27:13 2022
Terminated at Mon Jan 10 17:27:28 2022
Results reported at Mon Jan 10 17:27:28 2022

Your job looked like:

------------------------------------------------------------
# LSBATCH: User input
lscpu >> /cluster/home/jpassweg/dphpc-project/benchmark/2022-01-10_17-23-20-polybench_mpi_gramschmidt/P16-D512/CPU_INFO.txt; mpirun -np 16  /cluster/home/jpassweg/dphpc-project/benchmark/2022-01-10_17-23-20-polybench_mpi_gramschmidt/snapshot/polybench_mpi_gramschmidt -d 512 -b
------------------------------------------------------------

Successfully completed.

Resource usage summary:

    CPU time :                                   111.26 sec.
    Max Memory :                                 1205 MB
    Average Memory :                             1192.00 MB
    Total Requested Memory :                     16384.00 MB
    Delta Memory :                               15179.00 MB
    Max Swap :                                   -
    Max Processes :                              19
    Max Threads :                                71
    Run time :                                   23 sec.
    Turnaround time :                            241 sec.

The output (if any) follows:

***** LSB_Init >polybench_mpi_gramschmidt.512x512< writing to >lsb.polybench_mpi_gramschmidt.512x512.r0< *****
******* LSB_Finalize *******
