Sender: LSF System <lsfadmin@eu-a6-002-13>
Subject: Job 199065856: <classical_gram_mpi-P4-D32> in cluster <euler> Done

Job <classical_gram_mpi-P4-D32> was submitted from host <eu-login-20> by user <fhoerold> in cluster <euler> at Mon Jan  3 10:40:59 2022
Job was executed on host(s) <4*eu-a6-002-13>, in queue <hpc.24h>, as user <fhoerold> in cluster <euler> at Mon Jan  3 10:41:28 2022
</cluster/home/fhoerold> was used as the home directory.
</cluster/home/fhoerold/Design_of_Parallel_and_High_Performance_Computing/dphpc-project/benchmark/2022-01-03_10-40-56-classical_gram_mpi/P4-D32> was used as the working directory.
Started at Mon Jan  3 10:41:28 2022
Terminated at Mon Jan  3 10:41:38 2022
Results reported at Mon Jan  3 10:41:38 2022

Your job looked like:

------------------------------------------------------------
# LSBATCH: User input
lscpu >> /cluster/home/fhoerold/Design_of_Parallel_and_High_Performance_Computing/dphpc-project/benchmark/2022-01-03_10-40-56-classical_gram_mpi/P4-D32/CPU_INFO.txt; mpirun -np 4  /cluster/home/fhoerold/Design_of_Parallel_and_High_Performance_Computing/dphpc-project/benchmark/2022-01-03_10-40-56-classical_gram_mpi/snapshot/classical_gram_mpi -d 32 -b
------------------------------------------------------------

Successfully completed.

Resource usage summary:

    CPU time :                                   8.16 sec.
    Max Memory :                                 303 MB
    Average Memory :                             301.00 MB
    Total Requested Memory :                     4096.00 MB
    Delta Memory :                               3793.00 MB
    Max Swap :                                   -
    Max Processes :                              7
    Max Threads :                                23
    Run time :                                   24 sec.
    Turnaround time :                            39 sec.

The output (if any) follows:

***** LSB_Init >classical_gram_mpi.32x32_0< writing to >lsb.classical_gram_mpi.32x32_0.r0< *****
******* LSB_Finalize *******
