Sender: LSF System <lsfadmin@eu-a6-005-17>
Subject: Job 197656978: <classical_gram_omp-P12-D12> in cluster <euler> Exited

Job <classical_gram_omp-P12-D12> was submitted from host <eu-login-03> by user <fhoerold> in cluster <euler> at Tue Dec 21 08:32:28 2021
Job was executed on host(s) <12*eu-a6-005-17>, in queue <hpc.24h>, as user <fhoerold> in cluster <euler> at Tue Dec 21 08:51:35 2021
</cluster/home/fhoerold> was used as the home directory.
</cluster/home/fhoerold/Design_of_Parallel_and_High_Performance_Computing/dphpc-project/benchmark/2021-12-21_08-32-18-classical_gram_omp/P12-D12> was used as the working directory.
Started at Tue Dec 21 08:51:35 2021
Terminated at Tue Dec 21 08:51:43 2021
Results reported at Tue Dec 21 08:51:43 2021

Your job looked like:

------------------------------------------------------------
# LSBATCH: User input
lscpu >> /cluster/home/fhoerold/Design_of_Parallel_and_High_Performance_Computing/dphpc-project/benchmark/2021-12-21_08-32-18-classical_gram_omp/P12-D12/CPU_INFO.txt;   /cluster/home/fhoerold/Design_of_Parallel_and_High_Performance_Computing/dphpc-project/benchmark/2021-12-21_08-32-18-classical_gram_omp/snapshot/classical_gram_omp -d 4096 -b
------------------------------------------------------------

Exited with exit code 139.

Resource usage summary:

    CPU time :                                   2.24 sec.
    Max Memory :                                 1099 MB
    Average Memory :                             468.00 MB
    Total Requested Memory :                     12804.00 MB
    Delta Memory :                               11705.00 MB
    Max Swap :                                   -
    Max Processes :                              4
    Max Threads :                                11
    Run time :                                   17 sec.
    Turnaround time :                            1155 sec.

The output (if any) follows:

***** LSB_Init >classical_gram_omp.4096x4096< writing to >lsb.classical_gram_omp.4096x4096.r0< *****
***** LSB_Init >classical_gram_omp.4096x4096< writing to >lsb.classical_gram_omp.4096x4096.r0< *****
***** LSB_Init >classical_gram_omp.4096x4096< writing to >lsb.classical_gram_omp.4096x4096.r0< *****
***** LSB_Init >classical_gram_omp.4096x4096< writing to >lsb.classical_gram_omp.4096x4096.r0< *****
***** LSB_Init >classical_gram_omp.4096x4096< writing to >lsb.classical_gram_omp.4096x4096.r0< *****
***** LSB_Init >classical_gram_omp.4096x4096< writing to >lsb.classical_gram_omp.4096x4096.r0< *****
***** LSB_Init >classical_gram_omp.4096x4096< writing to >lsb.classical_gram_omp.4096x4096.r0< *****
***** LSB_Init >classical_gram_omp.4096x4096< writing to >lsb.classical_gram_omp.4096x4096.r0< *****
***** LSB_Init >classical_gram_omp.4096x4096< writing to >lsb.classical_gram_omp.4096x4096.r0< *****
***** LSB_Init >classical_gram_omp.4096x4096< writing to >lsb.classical_gram_omp.4096x4096.r0< *****
***** LSB_Init >classical_gram_omp.4096x4096< writing to >lsb.classical_gram_omp.4096x4096.r0< *****
[eu-a6-005-17:39526:0:39573] Caught signal 11 (Segmentation fault: invalid permissions for mapped object at address 0x2acc2b609000)
==== backtrace ====
    0  /cluster/spack/apps/linux-centos7-x86_64/gcc-8.2.0/ucx-1.6.1-f3pcfiiu6oav3fekzoxccr5irclwfiwv/lib/libucs.so.0(+0x1e874) [0x2acbffcd7874]
    1  /cluster/spack/apps/linux-centos7-x86_64/gcc-8.2.0/ucx-1.6.1-f3pcfiiu6oav3fekzoxccr5irclwfiwv/lib/libucs.so.0(+0x1eb18) [0x2acbffcd7b18]
    2  /cluster/home/fhoerold/Design_of_Parallel_and_High_Performance_Computing/dphpc-project/benchmark/2021-12-21_08-32-18-classical_gram_omp/snapshot/classical_gram_omp() [0x401bb7]
    3  /cluster/spack/apps/linux-centos7-x86_64/gcc-4.8.5/gcc-8.2.0-6xqov2fhvbmehix42slain67vprec3fs/lib64/libgomp.so.1(+0x1651e) [0x2acbfcd5d51e]
    4  /usr/lib64/libpthread.so.0(+0x7ea5) [0x2acbfd658ea5]
    5  /usr/lib64/libc.so.6(clone+0x6d) [0x2acbfd96b9fd]
===================
/cluster/shadow/.lsbatch/1640071948.197656978: line 8: 39526 Segmentation fault      (core dumped) /cluster/home/fhoerold/Design_of_Parallel_and_High_Performance_Computing/dphpc-project/benchmark/2021-12-21_08-32-18-classical_gram_omp/snapshot/classical_gram_omp -d 4096 -b
