Sender: LSF System <lsfadmin@eu-a6-008-19>
Subject: Job 197657115: <classical_gram_optimized-P12-D13> in cluster <euler> Exited

Job <classical_gram_optimized-P12-D13> was submitted from host <eu-login-03> by user <fhoerold> in cluster <euler> at Tue Dec 21 08:33:06 2021
Job was executed on host(s) <12*eu-a6-008-19>, in queue <hpc.24h>, as user <fhoerold> in cluster <euler> at Tue Dec 21 11:43:43 2021
</cluster/home/fhoerold> was used as the home directory.
</cluster/home/fhoerold/Design_of_Parallel_and_High_Performance_Computing/dphpc-project/benchmark/2021-12-21_08-32-54-classical_gram_optimized/P12-D13> was used as the working directory.
Started at Tue Dec 21 11:43:43 2021
Terminated at Tue Dec 21 19:43:52 2021
Results reported at Tue Dec 21 19:43:52 2021

Your job looked like:

------------------------------------------------------------
# LSBATCH: User input
lscpu >> /cluster/home/fhoerold/Design_of_Parallel_and_High_Performance_Computing/dphpc-project/benchmark/2021-12-21_08-32-54-classical_gram_optimized/P12-D13/CPU_INFO.txt;   /cluster/home/fhoerold/Design_of_Parallel_and_High_Performance_Computing/dphpc-project/benchmark/2021-12-21_08-32-54-classical_gram_optimized/snapshot/classical_gram_optimized -d 8192 -b
------------------------------------------------------------

TERM_RUNLIMIT: job killed after reaching LSF run time limit.
Exited with exit code 140.

Resource usage summary:

    CPU time :                                   28734.39 sec.
    Max Memory :                                 1621 MB
    Average Memory :                             1621.00 MB
    Total Requested Memory :                     15216.00 MB
    Delta Memory :                               13595.00 MB
    Max Swap :                                   -
    Max Processes :                              4
    Max Threads :                                11
    Run time :                                   28809 sec.
    Turnaround time :                            40246 sec.

The output (if any) follows:

(null): Forwarding signal 12 to job
User defined signal 2
