Sender: LSF System <lsfadmin@eu-a6-012-19>
Subject: Job 199752698: <classical_gram_mpi_omp-P1-D512> in cluster <euler> Done

Job <classical_gram_mpi_omp-P1-D512> was submitted from host <eu-login-15> by user <fhoerold> in cluster <euler> at Sat Jan  8 10:11:41 2022
Job was executed on host(s) <eu-a6-012-19>, in queue <hpc.24h>, as user <fhoerold> in cluster <euler> at Sat Jan  8 10:12:03 2022
</cluster/home/fhoerold> was used as the home directory.
</cluster/home/fhoerold/Design_of_Parallel_and_High_Performance_Computing/dphpc-project/benchmark/2022-01-08_10-11-40-classical_gram_mpi_omp/P1-D512> was used as the working directory.
Started at Sat Jan  8 10:12:03 2022
Terminated at Sat Jan  8 10:12:18 2022
Results reported at Sat Jan  8 10:12:18 2022

Your job looked like:

------------------------------------------------------------
# LSBATCH: User input
lscpu >> /cluster/home/fhoerold/Design_of_Parallel_and_High_Performance_Computing/dphpc-project/benchmark/2022-01-08_10-11-40-classical_gram_mpi_omp/P1-D512/CPU_INFO.txt; mpirun -np 1 --map-by ppr:1:node  /cluster/home/fhoerold/Design_of_Parallel_and_High_Performance_Computing/dphpc-project/benchmark/2022-01-08_10-11-40-classical_gram_mpi_omp/snapshot/classical_gram_mpi_omp -d 512 -b
------------------------------------------------------------

Successfully completed.

Resource usage summary:

    CPU time :                                   5.36 sec.
    Max Memory :                                 89 MB
    Average Memory :                             89.00 MB
    Total Requested Memory :                     1024.00 MB
    Delta Memory :                               935.00 MB
    Max Swap :                                   -
    Max Processes :                              4
    Max Threads :                                11
    Run time :                                   30 sec.
    Turnaround time :                            37 sec.

The output (if any) follows:

***** LSB_Init >classical_gram_mpi_omp.512x512_0< writing to >lsb.classical_gram_mpi_omp.512x512_0.r0< *****
******* LSB_Finalize *******
