Sender: LSF System <lsfadmin@eu-a6-008-18>
Subject: Job 200057655: <polybench_mpi_gramschmidt_splitr_optimized-P2-D1024> in cluster <euler> Done

Job <polybench_mpi_gramschmidt_splitr_optimized-P2-D1024> was submitted from host <eu-login-38> by user <jpassweg> in cluster <euler> at Wed Jan 12 10:38:23 2022
Job was executed on host(s) <2*eu-a6-008-18>, in queue <hpc.24h>, as user <jpassweg> in cluster <euler> at Wed Jan 12 10:38:56 2022
</cluster/home/jpassweg> was used as the home directory.
</cluster/home/jpassweg/dphpc-project/benchmark/2022-01-12_10-38-23-polybench_mpi_gramschmidt_splitr_optimized/P2-D1024> was used as the working directory.
Started at Wed Jan 12 10:38:56 2022
Terminated at Wed Jan 12 10:40:06 2022
Results reported at Wed Jan 12 10:40:06 2022

Your job looked like:

------------------------------------------------------------
# LSBATCH: User input
lscpu >> /cluster/home/jpassweg/dphpc-project/benchmark/2022-01-12_10-38-23-polybench_mpi_gramschmidt_splitr_optimized/P2-D1024/CPU_INFO.txt; mpirun -np 2  /cluster/home/jpassweg/dphpc-project/benchmark/2022-01-12_10-38-23-polybench_mpi_gramschmidt_splitr_optimized/snapshot/polybench_mpi_gramschmidt_splitr_optimized -d 1024 -b
------------------------------------------------------------

Successfully completed.

Resource usage summary:

    CPU time :                                   94.75 sec.
    Max Memory :                                 203 MB
    Average Memory :                             197.00 MB
    Total Requested Memory :                     2050.00 MB
    Delta Memory :                               1847.00 MB
    Max Swap :                                   -
    Max Processes :                              5
    Max Threads :                                15
    Run time :                                   91 sec.
    Turnaround time :                            103 sec.

The output (if any) follows:

***** LSB_Init >polybench_mpi_gramschmidt_splitr_optimized.1024x1< writing to >lsb.polybench_mpi_gramschmidt_splitr_optimized.1024x1.r0< *****
******* LSB_Finalize *******
